[gd_scene load_steps=5 format=3 uid="uid://i2olih3t1dh2"]

[ext_resource type="Script" path="res://main/main.gd" id="1_wctb3"]
[ext_resource type="Script" path="res://main/audio_player.gd" id="4_2umai"]
[ext_resource type="PackedScene" uid="uid://ceeflm27kai4" path="res://ui/ui.tscn" id="4_ih5se"]

[sub_resource type="Environment" id="Environment_bjg5m"]
background_mode = 3
background_canvas_max_layer = 3
glow_enabled = true
glow_levels/2 = 1.0
glow_levels/3 = 2.0
glow_levels/4 = 0.5
glow_levels/5 = 0.1
glow_strength = 1.91
glow_blend_mode = 1
glow_hdr_threshold = 1.1

[node name="Main" type="Node"]
script = ExtResource("1_wctb3")

[node name="WorldEnvironment" type="WorldEnvironment" parent="."]
environment = SubResource("Environment_bjg5m")

[node name="HUDLayer" type="CanvasLayer" parent="."]
layer = 2

[node name="UILayer" type="CanvasLayer" parent="."]
layer = 3

[node name="Ui" parent="UILayer" instance=ExtResource("4_ih5se")]

[node name="playground" type="CanvasLayer" parent="."]
layer = 0

[node name="GLAudioPlayer" type="Node" parent="."]
script = ExtResource("4_2umai")
