[gd_scene load_steps=5 format=3 uid="uid://bicfa0ox8yuq0"]

[ext_resource type="PackedScene" uid="uid://fw8ltsfg73k7" path="res://entities/player/shield.tscn" id="1_4jpsn"]
[ext_resource type="Script" path="res://entities/player/player.gd" id="1_e3fq8"]
[ext_resource type="Texture2D" uid="uid://ddu408vpg7s6e" path="res://assets/player/player.svg" id="3_xophr"]

[sub_resource type="CircleShape2D" id="CircleShape2D_u4dcq"]
radius = 34.4046

[node name="Player" type="CharacterBody2D" groups=["player"]]
scale = Vector2(0.7, 0.7)
script = ExtResource("1_e3fq8")

[node name="Shield" parent="." instance=ExtResource("1_4jpsn")]
script = null

[node name="CollisionShape2D" type="CollisionShape2D" parent="."]
shape = SubResource("CircleShape2D_u4dcq")

[node name="Sprite2D" type="Sprite2D" parent="."]
modulate = Color(0.9, 0.9, 0.9, 1)
rotation = 0.872665
scale = Vector2(0.15, 0.15)
texture = ExtResource("3_xophr")
