[gd_scene load_steps=5 format=3 uid="uid://b5paqsqt06juu"]

[ext_resource type="Script" path="res://levels/level_3.gd" id="1_nefh0"]
[ext_resource type="Texture2D" uid="uid://647h6d0dxhdr" path="res://assets/arena/arena_outer.png" id="1_vp507"]
[ext_resource type="PackedScene" uid="uid://bicfa0ox8yuq0" path="res://entities/player/player.tscn" id="2_mvo4g"]
[ext_resource type="PackedScene" uid="uid://buijte8pukfsl" path="res://entities/enemy/boss_3.tscn" id="3_aivd1"]

[node name="Level3" type="Node2D"]
script = ExtResource("1_nefh0")

[node name="Sprite2D" type="Sprite2D" parent="."]
position = Vector2(574, 323)
scale = Vector2(0.602083, 0.601852)
texture = ExtResource("1_vp507")

[node name="StaticBody2D" type="StaticBody2D" parent="."]

[node name="CollisionPolygon2D" type="CollisionPolygon2D" parent="StaticBody2D"]
polygon = PackedVector2Array(96, 44, 1067, 45, 1109, 88, 1112, 496, 1070, 541, 97, 541, 48, 493, 47, 87, 96, 52, 78, 8, 15, 72, 16, 513, 76, 577, 1087, 578, 1147, 512, 1147, 72, 1084, 6, 68, 5)

[node name="Player" parent="." instance=ExtResource("2_mvo4g")]
position = Vector2(174, 314)

[node name="Boss3" parent="." instance=ExtResource("3_aivd1")]
position = Vector2(954, 311)
