<?xml version="1.0" encoding="UTF-8" standalone="no"?>
<!-- Created with Inkscape (http://www.inkscape.org/) -->

<svg
   width="768"
   height="768"
   viewBox="0 0 203.19999 203.19999"
   version="1.1"
   id="svg1"
   inkscape:version="1.3.2 (091e20e, 2023-11-25, custom)"
   sodipodi:docname="boss_sheet.svg"
   xmlns:inkscape="http://www.inkscape.org/namespaces/inkscape"
   xmlns:sodipodi="http://sodipodi.sourceforge.net/DTD/sodipodi-0.dtd"
   xmlns:xlink="http://www.w3.org/1999/xlink"
   xmlns="http://www.w3.org/2000/svg"
   xmlns:svg="http://www.w3.org/2000/svg">
  <sodipodi:namedview
     id="namedview1"
     pagecolor="#ffffff"
     bordercolor="#000000"
     borderopacity="0.25"
     inkscape:showpageshadow="2"
     inkscape:pageopacity="0.0"
     inkscape:pagecheckerboard="0"
     inkscape:deskcolor="#d1d1d1"
     inkscape:document-units="mm"
     showgrid="true"
     inkscape:zoom="2.1041947"
     inkscape:cx="408.70742"
     inkscape:cy="226.45243"
     inkscape:window-width="2560"
     inkscape:window-height="1377"
     inkscape:window-x="1072"
     inkscape:window-y="477"
     inkscape:window-maximized="1"
     inkscape:current-layer="layer2">
    <inkscape:grid
       id="grid6"
       units="px"
       originx="0"
       originy="0"
       spacingx="8.4666666"
       spacingy="8.4666666"
       empcolor="#0099e5"
       empopacity="0.30196078"
       color="#0099e5"
       opacity="0.14901961"
       empspacing="4"
       dotted="false"
       gridanglex="30"
       gridanglez="30"
       visible="true" />
  </sodipodi:namedview>
  <defs
     id="defs1">
    <linearGradient
       id="linearGradient6"
       inkscape:collect="always">
      <stop
         style="stop-color:#000000;stop-opacity:1;"
         offset="0"
         id="stop7" />
      <stop
         style="stop-color:#fc2e20;stop-opacity:1;"
         offset="0.79096043"
         id="stop6" />
    </linearGradient>
    <radialGradient
       inkscape:collect="always"
       xlink:href="#linearGradient6"
       id="radialGradient7"
       cx="16.958088"
       cy="16.83387"
       fx="16.958088"
       fy="16.83387"
       r="8.5073535"
       gradientTransform="matrix(1.457639,0,0,1.2131611,-7.692224,-3.3549795)"
       gradientUnits="userSpaceOnUse" />
    <radialGradient
       inkscape:collect="always"
       xlink:href="#linearGradient6"
       id="radialGradient7-4"
       cx="16.958088"
       cy="16.83387"
       fx="16.958088"
       fy="16.83387"
       r="8.5073538"
       gradientTransform="matrix(1.4575223,0,0,1.2132591,26.178585,-3.3587739)"
       gradientUnits="userSpaceOnUse" />
    <radialGradient
       inkscape:collect="always"
       xlink:href="#linearGradient6"
       id="radialGradient7-4-0"
       cx="16.958088"
       cy="16.83387"
       fx="16.958088"
       fy="16.83387"
       r="8.5073538"
       gradientTransform="matrix(1.4571776,0,0,1.2135427,60.049829,-3.3622752)"
       gradientUnits="userSpaceOnUse" />
    <radialGradient
       inkscape:collect="always"
       xlink:href="#linearGradient6"
       id="radialGradient7-4-0-5"
       cx="16.958088"
       cy="16.83387"
       fx="16.958088"
       fy="16.83387"
       r="8.5073538"
       gradientTransform="matrix(1.4570819,0,0,1.2136262,93.916961,-3.3625387)"
       gradientUnits="userSpaceOnUse" />
    <radialGradient
       inkscape:collect="always"
       xlink:href="#linearGradient6"
       id="radialGradient7-4-0-5-8"
       cx="16.958088"
       cy="16.83387"
       fx="16.958088"
       fy="16.83387"
       r="8.5073538"
       gradientTransform="matrix(1.4572313,0,0,1.2135449,127.78281,-3.3635181)"
       gradientUnits="userSpaceOnUse" />
    <radialGradient
       inkscape:collect="always"
       xlink:href="#linearGradient6"
       id="radialGradient7-4-0-5-8-3"
       cx="16.958088"
       cy="16.83387"
       fx="16.958088"
       fy="16.83387"
       r="8.5073538"
       gradientTransform="matrix(1.4573017,0,0,1.2134393,161.64914,-3.3619291)"
       gradientUnits="userSpaceOnUse" />
  </defs>
  <g
     inkscape:label="Ebene 1"
     inkscape:groupmode="layer"
     id="layer1">
    <path
       sodipodi:type="star"
       style="fill:#fc2e20;fill-opacity:1;stroke:#010100;stroke-width:0.393691;stroke-linejoin:round;stroke-dasharray:none;stroke-opacity:1"
       id="path7-0"
       inkscape:flatsided="false"
       sodipodi:sides="3"
       sodipodi:cx="30.185705"
       sodipodi:cy="16.182028"
       sodipodi:r1="4.0950336"
       sodipodi:r2="4.0430498"
       sodipodi:arg1="1.0098955"
       sodipodi:arg2="2.6172486"
       inkscape:rounded="0"
       inkscape:randomized="0"
       d="m 32.364055,19.649605 -5.678226,-1.443443 -0.592309,-1.871416 4.089172,-4.195767 1.916848,0.422754 1.589055,5.63921 z"
       inkscape:transform-center-x="-0.28051244"
       inkscape:transform-center-y="-1.0757929"
       transform="matrix(-0.80898022,-1.126698,1.1288016,-0.58231762,32.483438,48.811428)" />
    <path
       sodipodi:type="star"
       style="fill:#fc2e20;fill-opacity:1;stroke:#010100;stroke-width:0.393691;stroke-linejoin:round;stroke-dasharray:none;stroke-opacity:1"
       id="path7-3-6"
       inkscape:flatsided="false"
       sodipodi:sides="3"
       sodipodi:cx="30.185705"
       sodipodi:cy="16.182028"
       sodipodi:r1="4.0950336"
       sodipodi:r2="4.0430498"
       sodipodi:arg1="1.0098955"
       sodipodi:arg2="2.6172486"
       inkscape:rounded="0"
       inkscape:randomized="0"
       d="m 32.364055,19.649605 -5.678226,-1.443443 -0.592309,-1.871416 4.089172,-4.195767 1.916848,0.422754 1.589055,5.63921 z"
       inkscape:transform-center-x="-0.60929122"
       inkscape:transform-center-y="-0.3430517"
       transform="matrix(0.02355686,-1.2772538,1.3677377,-0.17176431,4.0227979,69.743551)" />
    <path
       sodipodi:type="star"
       style="fill:#fc2e20;fill-opacity:1;stroke:#010100;stroke-width:0.393691;stroke-linejoin:round;stroke-dasharray:none;stroke-opacity:1"
       id="path7-3-2-7"
       inkscape:flatsided="false"
       sodipodi:sides="3"
       sodipodi:cx="30.185705"
       sodipodi:cy="16.182028"
       sodipodi:r1="4.0950336"
       sodipodi:r2="4.0430498"
       sodipodi:arg1="1.0098955"
       sodipodi:arg2="2.6172486"
       inkscape:rounded="0"
       inkscape:randomized="0"
       d="m 32.364055,19.649605 -5.678226,-1.443443 -0.592309,-1.871416 4.089172,-4.195767 1.916848,0.422754 1.589055,5.63921 z"
       inkscape:transform-center-x="0.18644751"
       inkscape:transform-center-y="0.77516835"
       transform="matrix(0.62479226,1.2264359,-1.2105611,0.41329999,8.0934109,-15.465892)" />
    <path
       sodipodi:type="star"
       style="fill:#fc2e20;fill-opacity:1;stroke:#010100;stroke-width:0.393691;stroke-linejoin:round;stroke-dasharray:none;stroke-opacity:1"
       id="path7-3-2-1-2"
       inkscape:flatsided="false"
       sodipodi:sides="3"
       sodipodi:cx="30.185705"
       sodipodi:cy="16.182028"
       sodipodi:r1="4.0950336"
       sodipodi:r2="4.0430498"
       sodipodi:arg1="1.0098955"
       sodipodi:arg2="2.6172486"
       inkscape:rounded="0"
       inkscape:randomized="0"
       d="m 32.364055,19.649605 -5.678226,-1.443443 -0.592309,-1.871416 4.089172,-4.195767 1.916848,0.422754 1.589055,5.63921 z"
       inkscape:transform-center-x="-1.2102365"
       inkscape:transform-center-y="0.27990477"
       transform="matrix(1.1925404,-0.78853634,0.65622778,1.0275899,-39.406248,12.836395)" />
    <path
       sodipodi:type="star"
       style="opacity:1;fill:#fc5920;fill-opacity:1;stroke:#010100;stroke-width:0.393691;stroke-linejoin:round;stroke-dasharray:none;stroke-opacity:1"
       id="path7"
       inkscape:flatsided="false"
       sodipodi:sides="3"
       sodipodi:cx="30.185705"
       sodipodi:cy="16.182028"
       sodipodi:r1="4.0950336"
       sodipodi:r2="4.0430498"
       sodipodi:arg1="1.0098955"
       sodipodi:arg2="2.6172486"
       inkscape:rounded="0"
       inkscape:randomized="0"
       d="m 32.364055,19.649605 -5.678226,-1.443443 -0.592309,-1.871416 4.089172,-4.195767 1.916848,0.422754 1.589055,5.63921 z"
       inkscape:transform-center-x="0.58777079"
       inkscape:transform-center-y="1.0993988"
       transform="matrix(1.3510677,0.44879338,-0.54710846,1.1082815,-2.913036,-25.636043)" />
    <path
       sodipodi:type="star"
       style="fill:#fc5920;fill-opacity:1;stroke:#010100;stroke-width:0.393691;stroke-linejoin:round;stroke-dasharray:none;stroke-opacity:1"
       id="path7-3"
       inkscape:flatsided="false"
       sodipodi:sides="3"
       sodipodi:cx="30.185705"
       sodipodi:cy="16.182028"
       sodipodi:r1="4.0950336"
       sodipodi:r2="4.0430498"
       sodipodi:arg1="1.0098955"
       sodipodi:arg2="2.6172486"
       inkscape:rounded="0"
       inkscape:randomized="0"
       d="m 32.364055,19.649605 -5.678226,-1.443443 -0.592309,-1.871416 4.089172,-4.195767 1.916848,0.422754 1.589055,5.63921 z"
       inkscape:transform-center-x="1.7722655"
       inkscape:transform-center-y="-0.36995029"
       transform="matrix(-0.91931481,0.92790885,-1.1311815,-0.75411446,74.916722,12.477165)" />
    <path
       sodipodi:type="star"
       style="fill:#fc5920;fill-opacity:1;stroke:#010100;stroke-width:0.393691;stroke-linejoin:round;stroke-dasharray:none;stroke-opacity:1"
       id="path7-3-2"
       inkscape:flatsided="false"
       sodipodi:sides="3"
       sodipodi:cx="30.185705"
       sodipodi:cy="16.182028"
       sodipodi:r1="4.0950336"
       sodipodi:r2="4.0430498"
       sodipodi:arg1="1.0098955"
       sodipodi:arg2="2.6172486"
       inkscape:rounded="0"
       inkscape:randomized="0"
       d="m 32.364055,19.649605 -5.678226,-1.443443 -0.592309,-1.871416 4.089172,-4.195767 1.916848,0.422754 1.589055,5.63921 z"
       inkscape:transform-center-x="-0.58118844"
       inkscape:transform-center-y="-1.1228142"
       transform="matrix(-1.3414743,-0.46775715,0.57022655,-1.1004121,36.178356,60.316229)" />
    <path
       sodipodi:type="star"
       style="fill:#fc5920;fill-opacity:1;stroke:#010100;stroke-width:0.393691;stroke-linejoin:round;stroke-dasharray:none;stroke-opacity:1"
       id="path7-3-2-1"
       inkscape:flatsided="false"
       sodipodi:sides="3"
       sodipodi:cx="30.185705"
       sodipodi:cy="16.182028"
       sodipodi:r1="4.0950336"
       sodipodi:r2="4.0430498"
       sodipodi:arg1="1.0098955"
       sodipodi:arg2="2.6172486"
       inkscape:rounded="0"
       inkscape:randomized="0"
       d="m 32.364055,19.649605 -5.678226,-1.443443 -0.592309,-1.871416 4.089172,-4.195767 1.916848,0.422754 1.589055,5.63921 z"
       inkscape:transform-center-x="-0.46723311"
       inkscape:transform-center-y="-0.82020482"
       transform="matrix(-1.4300946,-0.23134888,0.2820294,-1.1731074,43.353593,31.53696)" />
    <rect
       style="opacity:1;fill:url(#radialGradient7);stroke:#010100;stroke-width:0.519747;stroke-linejoin:round;stroke-dasharray:none"
       id="rect3"
       width="24.029964"
       height="20.008852"
       x="5.0115633"
       y="7.062788"
       ry="1.824169" />
    <ellipse
       style="opacity:1;fill:#1a1a1a;fill-opacity:1;stroke:none;stroke-width:0.519747;stroke-linejoin:round;stroke-dasharray:none"
       id="path6"
       cx="16.899748"
       cy="17.111729"
       rx="3.98526"
       ry="3.2691112" />
    <path
       sodipodi:type="star"
       style="fill:#fc2e20;fill-opacity:1;stroke:#010100;stroke-width:0.393691;stroke-linejoin:round;stroke-dasharray:none;stroke-opacity:1"
       id="path7-0-7"
       inkscape:flatsided="false"
       sodipodi:sides="3"
       sodipodi:cx="30.185705"
       sodipodi:cy="16.182028"
       sodipodi:r1="4.0950336"
       sodipodi:r2="4.0430498"
       sodipodi:arg1="1.0098955"
       sodipodi:arg2="2.6172486"
       inkscape:rounded="0"
       inkscape:randomized="0"
       d="m 32.364055,19.649605 -5.678226,-1.443443 -0.592309,-1.871416 4.089172,-4.195767 1.916848,0.422754 1.589055,5.63921 z"
       inkscape:transform-center-x="-0.20234078"
       inkscape:transform-center-y="-0.80623409"
       transform="matrix(-0.65555043,-1.2223957,1.1948467,-0.43067278,60.747642,49.319887)" />
    <path
       sodipodi:type="star"
       style="fill:#fc2e20;fill-opacity:1;stroke:#010100;stroke-width:0.393691;stroke-linejoin:round;stroke-dasharray:none;stroke-opacity:1"
       id="path7-3-6-0"
       inkscape:flatsided="false"
       sodipodi:sides="3"
       sodipodi:cx="30.185705"
       sodipodi:cy="16.182028"
       sodipodi:r1="4.0950336"
       sodipodi:r2="4.0430498"
       sodipodi:arg1="1.0098955"
       sodipodi:arg2="2.6172486"
       inkscape:rounded="0"
       inkscape:randomized="0"
       d="m 32.364055,19.649605 -5.678226,-1.443443 -0.592309,-1.871416 4.089172,-4.195767 1.916848,0.422754 1.589055,5.63921 z"
       inkscape:transform-center-x="-0.45112137"
       inkscape:transform-center-y="-0.54640134"
       transform="matrix(-0.08292915,-1.2748798,1.3485662,-0.28510292,41.367638,71.425169)" />
    <path
       sodipodi:type="star"
       style="fill:#fc2e20;fill-opacity:1;stroke:#010100;stroke-width:0.393691;stroke-linejoin:round;stroke-dasharray:none;stroke-opacity:1"
       id="path7-3-2-7-6"
       inkscape:flatsided="false"
       sodipodi:sides="3"
       sodipodi:cx="30.185705"
       sodipodi:cy="16.182028"
       sodipodi:r1="4.0950336"
       sodipodi:r2="4.0430498"
       sodipodi:arg1="1.0098955"
       sodipodi:arg2="2.6172486"
       inkscape:rounded="0"
       inkscape:randomized="0"
       d="m 32.364055,19.649605 -5.678226,-1.443443 -0.592309,-1.871416 4.089172,-4.195767 1.916848,0.422754 1.589055,5.63921 z"
       inkscape:transform-center-x="0.11159454"
       inkscape:transform-center-y="0.51194498"
       transform="matrix(0.47360891,1.2924338,-1.251201,0.26563825,47.106699,-15.153359)" />
    <path
       sodipodi:type="star"
       style="fill:#fc2e20;fill-opacity:1;stroke:#010100;stroke-width:0.393691;stroke-linejoin:round;stroke-dasharray:none;stroke-opacity:1"
       id="path7-3-2-1-2-9"
       inkscape:flatsided="false"
       sodipodi:sides="3"
       sodipodi:cx="30.185705"
       sodipodi:cy="16.182028"
       sodipodi:r1="4.0950336"
       sodipodi:r2="4.0430498"
       sodipodi:arg1="1.0098955"
       sodipodi:arg2="2.6172486"
       inkscape:rounded="0"
       inkscape:randomized="0"
       d="m 32.364055,19.649605 -5.678226,-1.443443 -0.592309,-1.871416 4.089172,-4.195767 1.916848,0.422754 1.589055,5.63921 z"
       inkscape:transform-center-x="-1.4255806"
       inkscape:transform-center-y="0.35424481"
       transform="matrix(1.0861638,-0.92954979,0.77782731,0.93896875,-4.241275,18.415738)" />
    <path
       sodipodi:type="star"
       style="fill:#fc5920;fill-opacity:1;stroke:#010100;stroke-width:0.393691;stroke-linejoin:round;stroke-dasharray:none;stroke-opacity:1"
       id="path7-7"
       inkscape:flatsided="false"
       sodipodi:sides="3"
       sodipodi:cx="30.185705"
       sodipodi:cy="16.182028"
       sodipodi:r1="4.0950336"
       sodipodi:r2="4.0430498"
       sodipodi:arg1="1.0098955"
       sodipodi:arg2="2.6172486"
       inkscape:rounded="0"
       inkscape:randomized="0"
       d="m 32.364055,19.649605 -5.678226,-1.443443 -0.592309,-1.871416 4.089172,-4.195767 1.916848,0.422754 1.589055,5.63921 z"
       inkscape:transform-center-x="0.6605998"
       inkscape:transform-center-y="0.8586576"
       transform="matrix(1.3998756,0.25862664,-0.38931407,1.1731158,27.055675,-20.96325)" />
    <path
       sodipodi:type="star"
       style="fill:#fc5920;fill-opacity:1;stroke:#010100;stroke-width:0.393691;stroke-linejoin:round;stroke-dasharray:none;stroke-opacity:1"
       id="path7-3-9"
       inkscape:flatsided="false"
       sodipodi:sides="3"
       sodipodi:cx="30.185705"
       sodipodi:cy="16.182028"
       sodipodi:r1="4.0950336"
       sodipodi:r2="4.0430498"
       sodipodi:arg1="1.0098955"
       sodipodi:arg2="2.6172486"
       inkscape:rounded="0"
       inkscape:randomized="0"
       d="m 32.364055,19.649605 -5.678226,-1.443443 -0.592309,-1.871416 4.089172,-4.195767 1.916848,0.422754 1.589055,5.63921 z"
       inkscape:transform-center-x="1.8318491"
       inkscape:transform-center-y="-0.33507224"
       transform="matrix(-0.97671427,0.86728743,-1.0805365,-0.82497763,109.71504,15.382806)" />
    <path
       sodipodi:type="star"
       style="fill:#fc5920;fill-opacity:1;stroke:#010100;stroke-width:0.393691;stroke-linejoin:round;stroke-dasharray:none;stroke-opacity:1"
       id="path7-3-2-4"
       inkscape:flatsided="false"
       sodipodi:sides="3"
       sodipodi:cx="30.185705"
       sodipodi:cy="16.182028"
       sodipodi:r1="4.0950336"
       sodipodi:r2="4.0430498"
       sodipodi:arg1="1.0098955"
       sodipodi:arg2="2.6172486"
       inkscape:rounded="0"
       inkscape:randomized="0"
       d="m 32.364055,19.649605 -5.678226,-1.443443 -0.592309,-1.871416 4.089172,-4.195767 1.916848,0.422754 1.589055,5.63921 z"
       inkscape:transform-center-x="-0.64580408"
       inkscape:transform-center-y="-0.88437579"
       transform="matrix(-1.3930899,-0.27820321,0.41285011,-1.1686589,74.024696,55.710257)" />
    <path
       sodipodi:type="star"
       style="fill:#fc5920;fill-opacity:1;stroke:#010100;stroke-width:0.393691;stroke-linejoin:round;stroke-dasharray:none;stroke-opacity:1"
       id="path7-3-2-1-0"
       inkscape:flatsided="false"
       sodipodi:sides="3"
       sodipodi:cx="30.185705"
       sodipodi:cy="16.182028"
       sodipodi:r1="4.0950336"
       sodipodi:r2="4.0430498"
       sodipodi:arg1="1.0098955"
       sodipodi:arg2="2.6172486"
       inkscape:rounded="0"
       inkscape:randomized="0"
       d="m 32.364055,19.649605 -5.678226,-1.443443 -0.592309,-1.871416 4.089172,-4.195767 1.916848,0.422754 1.589055,5.63921 z"
       inkscape:transform-center-x="-0.65046257"
       inkscape:transform-center-y="-1.025237"
       transform="matrix(-1.395573,-0.38826498,0.4101638,-1.1347673,74.2098,35.626835)" />
    <rect
       style="fill:url(#radialGradient7-4);stroke:#010100;stroke-width:0.519748;stroke-linejoin:round;stroke-dasharray:none"
       id="rect3-3"
       width="24.02804"
       height="20.010468"
       x="38.881351"
       y="7.0598359"
       ry="1.8243165" />
    <ellipse
       style="fill:#1a1a1a;fill-opacity:1;stroke:none;stroke-width:0.519748;stroke-linejoin:round;stroke-dasharray:none"
       id="path6-8"
       cx="50.768585"
       cy="17.109585"
       rx="3.9849405"
       ry="3.2693753" />
    <path
       sodipodi:type="star"
       style="fill:#fc2e20;fill-opacity:1;stroke:#010100;stroke-width:0.393691;stroke-linejoin:round;stroke-dasharray:none;stroke-opacity:1"
       id="path7-0-7-3"
       inkscape:flatsided="false"
       sodipodi:sides="3"
       sodipodi:cx="30.185705"
       sodipodi:cy="16.182028"
       sodipodi:r1="4.0950336"
       sodipodi:r2="4.0430498"
       sodipodi:arg1="1.0098955"
       sodipodi:arg2="2.6172486"
       inkscape:rounded="0"
       inkscape:randomized="0"
       d="m 32.364055,19.649605 -5.678226,-1.443443 -0.592309,-1.871416 4.089172,-4.195767 1.916848,0.422754 1.589055,5.63921 z"
       inkscape:transform-center-x="-0.11350849"
       inkscape:transform-center-y="-0.49837937"
       transform="matrix(-0.47620187,-1.3028865,1.2434509,-0.25792149,88.502876,49.049376)" />
    <path
       sodipodi:type="star"
       style="fill:#fc2e20;fill-opacity:1;stroke:#010100;stroke-width:0.393691;stroke-linejoin:round;stroke-dasharray:none;stroke-opacity:1"
       id="path7-3-6-0-5"
       inkscape:flatsided="false"
       sodipodi:sides="3"
       sodipodi:cx="30.185705"
       sodipodi:cy="16.182028"
       sodipodi:r1="4.0950336"
       sodipodi:r2="4.0430498"
       sodipodi:arg1="1.0098955"
       sodipodi:arg2="2.6172486"
       inkscape:rounded="0"
       inkscape:randomized="0"
       d="m 32.364055,19.649605 -5.678226,-1.443443 -0.592309,-1.871416 4.089172,-4.195767 1.916848,0.422754 1.589055,5.63921 z"
       inkscape:transform-center-x="-0.20889546"
       inkscape:transform-center-y="-0.84292881"
       transform="matrix(-0.24094904,-1.2549509,1.3022984,-0.4506243,80.665923,73.39519)" />
    <path
       sodipodi:type="star"
       style="fill:#fc2e20;fill-opacity:1;stroke:#010100;stroke-width:0.393691;stroke-linejoin:round;stroke-dasharray:none;stroke-opacity:1"
       id="path7-3-2-7-6-9"
       inkscape:flatsided="false"
       sodipodi:sides="3"
       sodipodi:cx="30.185705"
       sodipodi:cy="16.182028"
       sodipodi:r1="4.0950336"
       sodipodi:r2="4.0430498"
       sodipodi:arg1="1.0098955"
       sodipodi:arg2="2.6172486"
       inkscape:rounded="0"
       inkscape:randomized="0"
       d="m 32.364055,19.649605 -5.678226,-1.443443 -0.592309,-1.871416 4.089172,-4.195767 1.916848,0.422754 1.589055,5.63921 z"
       inkscape:transform-center-x="0.063433307"
       inkscape:transform-center-y="0.3421615"
       transform="matrix(0.37445818,1.3247605,-1.2674259,0.17054596,84.186297,-14.64366)" />
    <path
       sodipodi:type="star"
       style="fill:#fc2e20;fill-opacity:1;stroke:#010100;stroke-width:0.393691;stroke-linejoin:round;stroke-dasharray:none;stroke-opacity:1"
       id="path7-3-2-1-2-9-6"
       inkscape:flatsided="false"
       sodipodi:sides="3"
       sodipodi:cx="30.185705"
       sodipodi:cy="16.182028"
       sodipodi:r1="4.0950336"
       sodipodi:r2="4.0430498"
       sodipodi:arg1="1.0098955"
       sodipodi:arg2="2.6172486"
       inkscape:rounded="0"
       inkscape:randomized="0"
       d="m 32.364055,19.649605 -5.678226,-1.443443 -0.592309,-1.871416 4.089172,-4.195767 1.916848,0.422754 1.589055,5.63921 z"
       inkscape:transform-center-x="-1.5783028"
       inkscape:transform-center-y="0.40847443"
       transform="matrix(0.9914986,-1.0297395,0.86435722,0.86014775,31.114825,22.625886)" />
    <path
       sodipodi:type="star"
       style="fill:#fc5920;fill-opacity:1;stroke:#010100;stroke-width:0.393691;stroke-linejoin:round;stroke-dasharray:none;stroke-opacity:1"
       id="path7-7-4"
       inkscape:flatsided="false"
       sodipodi:sides="3"
       sodipodi:cx="30.185705"
       sodipodi:cy="16.182028"
       sodipodi:r1="4.0950336"
       sodipodi:r2="4.0430498"
       sodipodi:arg1="1.0098955"
       sodipodi:arg2="2.6172486"
       inkscape:rounded="0"
       inkscape:randomized="0"
       d="m 32.364055,19.649605 -5.678226,-1.443443 -0.592309,-1.871416 4.089172,-4.195767 1.916848,0.422754 1.589055,5.63921 z"
       inkscape:transform-center-x="0.50249611"
       inkscape:transform-center-y="0.72305789"
       transform="matrix(1.4148606,0.15472497,-0.30144863,1.198886,59.111188,-18.260661)" />
    <path
       sodipodi:type="star"
       style="fill:#fc5920;fill-opacity:1;stroke:#010100;stroke-width:0.393691;stroke-linejoin:round;stroke-dasharray:none;stroke-opacity:1"
       id="path7-3-9-2"
       inkscape:flatsided="false"
       sodipodi:sides="3"
       sodipodi:cx="30.185705"
       sodipodi:cy="16.182028"
       sodipodi:r1="4.0950336"
       sodipodi:r2="4.0430498"
       sodipodi:arg1="1.0098955"
       sodipodi:arg2="2.6172486"
       inkscape:rounded="0"
       inkscape:randomized="0"
       d="m 32.364055,19.649605 -5.678226,-1.443443 -0.592309,-1.871416 4.089172,-4.195767 1.916848,0.422754 1.589055,5.63921 z"
       inkscape:transform-center-x="1.7803116"
       inkscape:transform-center-y="-0.26738942"
       transform="matrix(-1.0717801,0.74662481,-0.97569497,-0.94648153,144.7942,20.870245)" />
    <path
       sodipodi:type="star"
       style="fill:#fc5920;fill-opacity:1;stroke:#010100;stroke-width:0.393691;stroke-linejoin:round;stroke-dasharray:none;stroke-opacity:1"
       id="path7-3-2-4-1"
       inkscape:flatsided="false"
       sodipodi:sides="3"
       sodipodi:cx="30.185705"
       sodipodi:cy="16.182028"
       sodipodi:r1="4.0950336"
       sodipodi:r2="4.0430498"
       sodipodi:arg1="1.0098955"
       sodipodi:arg2="2.6172486"
       inkscape:rounded="0"
       inkscape:randomized="0"
       d="m 32.364055,19.649605 -5.678226,-1.443443 -0.592309,-1.871416 4.089172,-4.195767 1.916848,0.422754 1.589055,5.63921 z"
       inkscape:transform-center-x="-0.58741402"
       inkscape:transform-center-y="-0.78625819"
       transform="matrix(-1.4058463,-0.20234601,0.34862658,-1.1895716,109.26765,53.772592)" />
    <path
       sodipodi:type="star"
       style="fill:#fc5920;fill-opacity:1;stroke:#010100;stroke-width:0.393691;stroke-linejoin:round;stroke-dasharray:none;stroke-opacity:1"
       id="path7-3-2-1-0-8"
       inkscape:flatsided="false"
       sodipodi:sides="3"
       sodipodi:cx="30.185705"
       sodipodi:cy="16.182028"
       sodipodi:r1="4.0950336"
       sodipodi:r2="4.0430498"
       sodipodi:arg1="1.0098955"
       sodipodi:arg2="2.6172486"
       inkscape:rounded="0"
       inkscape:randomized="0"
       d="m 32.364055,19.649605 -5.678226,-1.443443 -0.592309,-1.871416 4.089172,-4.195767 1.916848,0.422754 1.589055,5.63921 z"
       inkscape:transform-center-x="-0.5937554"
       inkscape:transform-center-y="-1.1773207"
       transform="matrix(-1.356232,-0.5080024,0.50716709,-1.095134,105.40222,38.588198)" />
    <rect
       style="fill:url(#radialGradient7-4-0);stroke:#010100;stroke-width:0.519747;stroke-linejoin:round;stroke-dasharray:none"
       id="rect3-3-8"
       width="24.022358"
       height="20.015144"
       x="72.749596"
       y="7.0587692"
       ry="1.8247428" />
    <ellipse
       style="fill:#1a1a1a;fill-opacity:1;stroke:none;stroke-width:0.519747;stroke-linejoin:round;stroke-dasharray:none"
       id="path6-8-1"
       cx="84.63401"
       cy="17.110867"
       rx="3.9839978"
       ry="3.2701392" />
    <path
       sodipodi:type="star"
       style="fill:#fc2e20;fill-opacity:1;stroke:#010100;stroke-width:0.393691;stroke-linejoin:round;stroke-dasharray:none;stroke-opacity:1"
       id="path7-0-7-3-7"
       inkscape:flatsided="false"
       sodipodi:sides="3"
       sodipodi:cx="30.185705"
       sodipodi:cy="16.182028"
       sodipodi:r1="4.0950336"
       sodipodi:r2="4.0430498"
       sodipodi:arg1="1.0098955"
       sodipodi:arg2="2.6172486"
       inkscape:rounded="0"
       inkscape:randomized="0"
       d="m 32.364055,19.649605 -5.678226,-1.443443 -0.592309,-1.871416 4.089172,-4.195767 1.916848,0.422754 1.589055,5.63921 z"
       inkscape:transform-center-x="-0.043072943"
       inkscape:transform-center-y="-0.25255671"
       transform="matrix(-0.33059853,-1.3472472,1.2641621,-0.12028149,117.69908,48.244831)" />
    <path
       sodipodi:type="star"
       style="fill:#fc2e20;fill-opacity:1;stroke:#010100;stroke-width:0.393691;stroke-linejoin:round;stroke-dasharray:none;stroke-opacity:1"
       id="path7-3-6-0-5-2"
       inkscape:flatsided="false"
       sodipodi:sides="3"
       sodipodi:cx="30.185705"
       sodipodi:cy="16.182028"
       sodipodi:r1="4.0950336"
       sodipodi:r2="4.0430498"
       sodipodi:arg1="1.0098955"
       sodipodi:arg2="2.6172486"
       inkscape:rounded="0"
       inkscape:randomized="0"
       d="m 32.364055,19.649605 -5.678226,-1.443443 -0.592309,-1.871416 4.089172,-4.195767 1.916848,0.422754 1.589055,5.63921 z"
       inkscape:transform-center-x="-0.090349694"
       inkscape:transform-center-y="-1.1765459"
       transform="matrix(-0.42294556,-1.2059435,1.2217658,-0.63725226,121.21205,74.82131)" />
    <path
       sodipodi:type="star"
       style="fill:#fc2e20;fill-opacity:1;stroke:#010100;stroke-width:0.393691;stroke-linejoin:round;stroke-dasharray:none;stroke-opacity:1"
       id="path7-3-2-7-6-9-4"
       inkscape:flatsided="false"
       sodipodi:sides="3"
       sodipodi:cx="30.185705"
       sodipodi:cy="16.182028"
       sodipodi:r1="4.0950336"
       sodipodi:r2="4.0430498"
       sodipodi:arg1="1.0098955"
       sodipodi:arg2="2.6172486"
       inkscape:rounded="0"
       inkscape:randomized="0"
       d="m 32.364055,19.649605 -5.678226,-1.443443 -0.592309,-1.871416 4.089172,-4.195767 1.916848,0.422754 1.589055,5.63921 z"
       inkscape:transform-center-x="0.24123609"
       inkscape:transform-center-y="0.065056721"
       transform="matrix(0.21094277,1.3604661,-1.2786877,0.01560741,123.10986,-13.310726)" />
    <path
       sodipodi:type="star"
       style="fill:#fc2e20;fill-opacity:1;stroke:#010100;stroke-width:0.393691;stroke-linejoin:round;stroke-dasharray:none;stroke-opacity:1"
       id="path7-3-2-1-2-9-6-8"
       inkscape:flatsided="false"
       sodipodi:sides="3"
       sodipodi:cx="30.185705"
       sodipodi:cy="16.182028"
       sodipodi:r1="4.0950336"
       sodipodi:r2="4.0430498"
       sodipodi:arg1="1.0098955"
       sodipodi:arg2="2.6172486"
       inkscape:rounded="0"
       inkscape:randomized="0"
       d="m 32.364055,19.649605 -5.678226,-1.443443 -0.592309,-1.871416 4.089172,-4.195767 1.916848,0.422754 1.589055,5.63921 z"
       inkscape:transform-center-x="-1.5763455"
       inkscape:transform-center-y="0.48613826"
       transform="matrix(0.82412689,-1.167967,0.98457281,0.71949483,68.119293,28.930548)" />
    <path
       sodipodi:type="star"
       style="fill:#fc5920;fill-opacity:1;stroke:#010100;stroke-width:0.393691;stroke-linejoin:round;stroke-dasharray:none;stroke-opacity:1"
       id="path7-7-4-1"
       inkscape:flatsided="false"
       sodipodi:sides="3"
       sodipodi:cx="30.185705"
       sodipodi:cy="16.182028"
       sodipodi:r1="4.0950336"
       sodipodi:r2="4.0430498"
       sodipodi:arg1="1.0098955"
       sodipodi:arg2="2.6172486"
       inkscape:rounded="0"
       inkscape:randomized="0"
       d="m 32.364055,19.649605 -5.678226,-1.443443 -0.592309,-1.871416 4.089172,-4.195767 1.916848,0.422754 1.589055,5.63921 z"
       inkscape:transform-center-x="0.30063325"
       inkscape:transform-center-y="0.5471707"
       transform="matrix(1.4230334,0.02312266,-0.18909886,1.2217079,90.99345,-14.683333)" />
    <path
       sodipodi:type="star"
       style="fill:#fc5920;fill-opacity:1;stroke:#010100;stroke-width:0.393691;stroke-linejoin:round;stroke-dasharray:none;stroke-opacity:1"
       id="path7-3-9-2-6"
       inkscape:flatsided="false"
       sodipodi:sides="3"
       sodipodi:cx="30.185705"
       sodipodi:cy="16.182028"
       sodipodi:r1="4.0950336"
       sodipodi:r2="4.0430498"
       sodipodi:arg1="1.0098955"
       sodipodi:arg2="2.6172486"
       inkscape:rounded="0"
       inkscape:randomized="0"
       d="m 32.364055,19.649605 -5.678226,-1.443443 -0.592309,-1.871416 4.089172,-4.195767 1.916848,0.422754 1.589055,5.63921 z"
       inkscape:transform-center-x="1.590989"
       inkscape:transform-center-y="-0.20276296"
       transform="matrix(-1.1452617,0.62812771,-0.86909136,-1.0451789,179.20381,25.938103)" />
    <path
       sodipodi:type="star"
       style="fill:#fc5920;fill-opacity:1;stroke:#010100;stroke-width:0.393691;stroke-linejoin:round;stroke-dasharray:none;stroke-opacity:1"
       id="path7-3-2-4-1-4"
       inkscape:flatsided="false"
       sodipodi:sides="3"
       sodipodi:cx="30.185705"
       sodipodi:cy="16.182028"
       sodipodi:r1="4.0950336"
       sodipodi:r2="4.0430498"
       sodipodi:arg1="1.0098955"
       sodipodi:arg2="2.6172486"
       inkscape:rounded="0"
       inkscape:randomized="0"
       d="m 32.364055,19.649605 -5.678226,-1.443443 -0.592309,-1.871416 4.089172,-4.195767 1.916848,0.422754 1.589055,5.63921 z"
       inkscape:transform-center-x="-0.37669696"
       inkscape:transform-center-y="-0.60450049"
       transform="matrix(-1.4187756,-0.06494335,0.23141875,-1.2178631,145.33363,50.108962)" />
    <path
       sodipodi:type="star"
       style="fill:#fc5920;fill-opacity:1;stroke:#010100;stroke-width:0.393691;stroke-linejoin:round;stroke-dasharray:none;stroke-opacity:1"
       id="path7-3-2-1-0-8-1"
       inkscape:flatsided="false"
       sodipodi:sides="3"
       sodipodi:cx="30.185705"
       sodipodi:cy="16.182028"
       sodipodi:r1="4.0950336"
       sodipodi:r2="4.0430498"
       sodipodi:arg1="1.0098955"
       sodipodi:arg2="2.6172486"
       inkscape:rounded="0"
       inkscape:randomized="0"
       d="m 32.364055,19.649605 -5.678226,-1.443443 -0.592309,-1.871416 4.089172,-4.195767 1.916848,0.422754 1.589055,5.63921 z"
       inkscape:transform-center-x="-0.55095556"
       inkscape:transform-center-y="-1.3650781"
       transform="matrix(-1.288602,-0.66081441,0.62993327,-1.0295144,135.34926,42.136823)" />
    <rect
       style="fill:url(#radialGradient7-4-0-5);stroke:#010100;stroke-width:0.519747;stroke-linejoin:round;stroke-dasharray:none"
       id="rect3-3-8-3"
       width="24.020782"
       height="20.016521"
       x="106.61589"
       y="7.0592213"
       ry="1.8248683" />
    <ellipse
       style="fill:#1a1a1a;fill-opacity:1;stroke:none;stroke-width:0.519747;stroke-linejoin:round;stroke-dasharray:none"
       id="path6-8-1-0"
       cx="118.49953"
       cy="17.112011"
       rx="3.9837365"
       ry="3.270364" />
    <path
       sodipodi:type="star"
       style="fill:#fc2e20;fill-opacity:1;stroke:#010100;stroke-width:0.393691;stroke-linejoin:round;stroke-dasharray:none;stroke-opacity:1"
       id="path7-0-7-3-7-8"
       inkscape:flatsided="false"
       sodipodi:sides="3"
       sodipodi:cx="30.185705"
       sodipodi:cy="16.182028"
       sodipodi:r1="4.0950336"
       sodipodi:r2="4.0430498"
       sodipodi:arg1="1.0098955"
       sodipodi:arg2="2.6172486"
       inkscape:rounded="0"
       inkscape:randomized="0"
       d="m 32.364055,19.649605 -5.678226,-1.443443 -0.592309,-1.871416 4.089172,-4.195767 1.916848,0.422754 1.589055,5.63921 z"
       inkscape:transform-center-x="-0.11130019"
       inkscape:transform-center-y="-0.49061463"
       transform="matrix(-0.47168069,-1.3045503,1.2443837,-0.2535706,156.08763,49.030517)" />
    <path
       sodipodi:type="star"
       style="fill:#fc2e20;fill-opacity:1;stroke:#010100;stroke-width:0.393691;stroke-linejoin:round;stroke-dasharray:none;stroke-opacity:1"
       id="path7-3-6-0-5-2-0"
       inkscape:flatsided="false"
       sodipodi:sides="3"
       sodipodi:cx="30.185705"
       sodipodi:cy="16.182028"
       sodipodi:r1="4.0950336"
       sodipodi:r2="4.0430498"
       sodipodi:arg1="1.0098955"
       sodipodi:arg2="2.6172486"
       inkscape:rounded="0"
       inkscape:randomized="0"
       d="m 32.364055,19.649605 -5.678226,-1.443443 -0.592309,-1.871416 4.089172,-4.195767 1.916848,0.422754 1.589055,5.63921 z"
       inkscape:transform-center-x="-0.21916441"
       inkscape:transform-center-y="-0.83073831"
       transform="matrix(-0.23437623,-1.2561975,1.3046888,-0.44381162,148.16685,73.325818)" />
    <path
       sodipodi:type="star"
       style="fill:#fc2e20;fill-opacity:1;stroke:#010100;stroke-width:0.393691;stroke-linejoin:round;stroke-dasharray:none;stroke-opacity:1"
       id="path7-3-2-7-6-9-4-3"
       inkscape:flatsided="false"
       sodipodi:sides="3"
       sodipodi:cx="30.185705"
       sodipodi:cy="16.182028"
       sodipodi:r1="4.0950336"
       sodipodi:r2="4.0430498"
       sodipodi:arg1="1.0098955"
       sodipodi:arg2="2.6172486"
       inkscape:rounded="0"
       inkscape:randomized="0"
       d="m 32.364055,19.649605 -5.678226,-1.443443 -0.592309,-1.871416 4.089172,-4.195767 1.916848,0.422754 1.589055,5.63921 z"
       inkscape:transform-center-x="0.059694157"
       inkscape:transform-center-y="0.32892575"
       transform="matrix(0.36674278,1.32693,-1.2684435,0.1631383,152.16602,-14.595017)" />
    <path
       sodipodi:type="star"
       style="fill:#fc2e20;fill-opacity:1;stroke:#010100;stroke-width:0.393691;stroke-linejoin:round;stroke-dasharray:none;stroke-opacity:1"
       id="path7-3-2-1-2-9-6-8-0"
       inkscape:flatsided="false"
       sodipodi:sides="3"
       sodipodi:cx="30.185705"
       sodipodi:cy="16.182028"
       sodipodi:r1="4.0950336"
       sodipodi:r2="4.0430498"
       sodipodi:arg1="1.0098955"
       sodipodi:arg2="2.6172486"
       inkscape:rounded="0"
       inkscape:randomized="0"
       d="m 32.364055,19.649605 -5.678226,-1.443443 -0.592309,-1.871416 4.089172,-4.195767 1.916848,0.422754 1.589055,5.63921 z"
       inkscape:transform-center-x="-1.5462466"
       inkscape:transform-center-y="0.39698912"
       transform="matrix(1.0128961,-1.0087524,0.84617212,0.87806375,98.490682,21.720687)" />
    <path
       sodipodi:type="star"
       style="fill:#fc5920;fill-opacity:1;stroke:#010100;stroke-width:0.393691;stroke-linejoin:round;stroke-dasharray:none;stroke-opacity:1"
       id="path7-7-4-1-9"
       inkscape:flatsided="false"
       sodipodi:sides="3"
       sodipodi:cx="30.185705"
       sodipodi:cy="16.182028"
       sodipodi:r1="4.0950336"
       sodipodi:r2="4.0430498"
       sodipodi:arg1="1.0098955"
       sodipodi:arg2="2.6172486"
       inkscape:rounded="0"
       inkscape:randomized="0"
       d="m 32.364055,19.649605 -5.678226,-1.443443 -0.592309,-1.871416 4.089172,-4.195767 1.916848,0.422754 1.589055,5.63921 z"
       inkscape:transform-center-x="0.59083296"
       inkscape:transform-center-y="0.79929682"
       transform="matrix(1.4073425,0.21282148,-0.35055856,1.1854679,127.82992,-19.789253)" />
    <path
       sodipodi:type="star"
       style="fill:#fc5920;fill-opacity:1;stroke:#010100;stroke-width:0.393691;stroke-linejoin:round;stroke-dasharray:none;stroke-opacity:1"
       id="path7-3-9-2-6-3"
       inkscape:flatsided="false"
       sodipodi:sides="3"
       sodipodi:cx="30.185705"
       sodipodi:cy="16.182028"
       sodipodi:r1="4.0950336"
       sodipodi:r2="4.0430498"
       sodipodi:arg1="1.0098955"
       sodipodi:arg2="2.6172486"
       inkscape:rounded="0"
       inkscape:randomized="0"
       d="m 32.364055,19.649605 -5.678226,-1.443443 -0.592309,-1.871416 4.089172,-4.195767 1.916848,0.422754 1.589055,5.63921 z"
       inkscape:transform-center-x="1.8790072"
       inkscape:transform-center-y="-0.30246281"
       transform="matrix(-1.0250301,0.80965422,-1.0308279,-0.88617049,211.9855,18.053561)" />
    <path
       sodipodi:type="star"
       style="fill:#fc5920;fill-opacity:1;stroke:#010100;stroke-width:0.393691;stroke-linejoin:round;stroke-dasharray:none;stroke-opacity:1"
       id="path7-3-2-4-1-4-6"
       inkscape:flatsided="false"
       sodipodi:sides="3"
       sodipodi:cx="30.185705"
       sodipodi:cy="16.182028"
       sodipodi:r1="4.0950336"
       sodipodi:r2="4.0430498"
       sodipodi:arg1="1.0098955"
       sodipodi:arg2="2.6172486"
       inkscape:rounded="0"
       inkscape:randomized="0"
       d="m 32.364055,19.649605 -5.678226,-1.443443 -0.592309,-1.871416 4.089172,-4.195767 1.916848,0.422754 1.589055,5.63921 z"
       inkscape:transform-center-x="-0.60822978"
       inkscape:transform-center-y="-0.80405256"
       transform="matrix(-1.4038612,-0.21599753,0.36019677,-1.1861315,176.76277,54.125865)" />
    <path
       sodipodi:type="star"
       style="fill:#fc5920;fill-opacity:1;stroke:#010100;stroke-width:0.393691;stroke-linejoin:round;stroke-dasharray:none;stroke-opacity:1"
       id="path7-3-2-1-0-8-1-2"
       inkscape:flatsided="false"
       sodipodi:sides="3"
       sodipodi:cx="30.185705"
       sodipodi:cy="16.182028"
       sodipodi:r1="4.0950336"
       sodipodi:r2="4.0430498"
       sodipodi:arg1="1.0098955"
       sodipodi:arg2="2.6172486"
       inkscape:rounded="0"
       inkscape:randomized="0"
       d="m 32.364055,19.649605 -5.678226,-1.443443 -0.592309,-1.871416 4.089172,-4.195767 1.916848,0.422754 1.589055,5.63921 z"
       inkscape:transform-center-x="-0.59949547"
       inkscape:transform-center-y="-1.1479131"
       transform="matrix(-1.3648321,-0.48457807,0.4882406,-1.1037068,173.68534,38.020081)" />
    <rect
       style="fill:url(#radialGradient7-4-0-5-8);stroke:#010100;stroke-width:0.519756;stroke-linejoin:round;stroke-dasharray:none"
       id="rect3-3-8-3-3"
       width="24.023245"
       height="20.015181"
       x="140.48303"
       y="7.0575442"
       ry="1.8247461" />
    <ellipse
       style="fill:#1a1a1a;fill-opacity:1;stroke:none;stroke-width:0.519756;stroke-linejoin:round;stroke-dasharray:none"
       id="path6-8-1-0-8"
       cx="152.36787"
       cy="17.109661"
       rx="3.9841447"
       ry="3.2701452" />
    <path
       sodipodi:type="star"
       style="fill:#fc2e20;fill-opacity:1;stroke:#010100;stroke-width:0.393691;stroke-linejoin:round;stroke-dasharray:none;stroke-opacity:1"
       id="path7-0-7-3-7-8-4"
       inkscape:flatsided="false"
       sodipodi:sides="3"
       sodipodi:cx="30.185705"
       sodipodi:cy="16.182028"
       sodipodi:r1="4.0950336"
       sodipodi:r2="4.0430498"
       sodipodi:arg1="1.0098955"
       sodipodi:arg2="2.6172486"
       inkscape:rounded="0"
       inkscape:randomized="0"
       d="m 32.364055,19.649605 -5.678226,-1.443443 -0.592309,-1.871416 4.089172,-4.195767 1.916848,0.422754 1.589055,5.63921 z"
       inkscape:transform-center-x="-0.19080259"
       inkscape:transform-center-y="-0.76667765"
       transform="matrix(-0.63251845,-1.2345431,1.2025063,-0.40844983,195.40676,49.337057)" />
    <path
       sodipodi:type="star"
       style="fill:#fc2e20;fill-opacity:1;stroke:#010100;stroke-width:0.393691;stroke-linejoin:round;stroke-dasharray:none;stroke-opacity:1"
       id="path7-3-6-0-5-2-0-3"
       inkscape:flatsided="false"
       sodipodi:sides="3"
       sodipodi:cx="30.185705"
       sodipodi:cy="16.182028"
       sodipodi:r1="4.0950336"
       sodipodi:r2="4.0430498"
       sodipodi:arg1="1.0098955"
       sodipodi:arg2="2.6172486"
       inkscape:rounded="0"
       inkscape:randomized="0"
       d="m 32.364055,19.649605 -5.678226,-1.443443 -0.592309,-1.871416 4.089172,-4.195767 1.916848,0.422754 1.589055,5.63921 z"
       inkscape:transform-center-x="-0.36005764"
       inkscape:transform-center-y="-0.6598747"
       transform="matrix(-0.14300869,-1.2697358,1.3334061,-0.34840366,178.86187,72.252645)" />
    <path
       sodipodi:type="star"
       style="fill:#fc2e20;fill-opacity:1;stroke:#010100;stroke-width:0.393691;stroke-linejoin:round;stroke-dasharray:none;stroke-opacity:1"
       id="path7-3-2-7-6-9-4-3-8"
       inkscape:flatsided="false"
       sodipodi:sides="3"
       sodipodi:cx="30.185705"
       sodipodi:cy="16.182028"
       sodipodi:r1="4.0950336"
       sodipodi:r2="4.0430498"
       sodipodi:arg1="1.0098955"
       sodipodi:arg2="2.6172486"
       inkscape:rounded="0"
       inkscape:randomized="0"
       d="m 32.364055,19.649605 -5.678226,-1.443443 -0.592309,-1.871416 4.089172,-4.195767 1.916848,0.422754 1.589055,5.63921 z"
       inkscape:transform-center-x="0.12812299"
       inkscape:transform-center-y="0.57053632"
       transform="matrix(0.50726947,1.2797253,-1.2436182,0.29847724,181.4523,-15.28052)" />
    <path
       sodipodi:type="star"
       style="fill:#fc2e20;fill-opacity:1;stroke:#010100;stroke-width:0.393691;stroke-linejoin:round;stroke-dasharray:none;stroke-opacity:1"
       id="path7-3-2-1-2-9-6-8-0-7"
       inkscape:flatsided="false"
       sodipodi:sides="3"
       sodipodi:cx="30.185705"
       sodipodi:cy="16.182028"
       sodipodi:r1="4.0950336"
       sodipodi:r2="4.0430498"
       sodipodi:arg1="1.0098955"
       sodipodi:arg2="2.6172486"
       inkscape:rounded="0"
       inkscape:randomized="0"
       d="m 32.364055,19.649605 -5.678226,-1.443443 -0.592309,-1.871416 4.089172,-4.195767 1.916848,0.422754 1.589055,5.63921 z"
       inkscape:transform-center-x="-1.4089188"
       inkscape:transform-center-y="0.34850105"
       transform="matrix(1.0951244,-0.91884247,0.76840803,0.94678926,131.10528,17.973081)" />
    <path
       sodipodi:type="star"
       style="fill:#fc5920;fill-opacity:1;stroke:#010100;stroke-width:0.393691;stroke-linejoin:round;stroke-dasharray:none;stroke-opacity:1"
       id="path7-7-4-1-9-8"
       inkscape:flatsided="false"
       sodipodi:sides="3"
       sodipodi:cx="30.185705"
       sodipodi:cy="16.182028"
       sodipodi:r1="4.0950336"
       sodipodi:r2="4.0430498"
       sodipodi:arg1="1.0098955"
       sodipodi:arg2="2.6172486"
       inkscape:rounded="0"
       inkscape:randomized="0"
       d="m 32.364055,19.649605 -5.678226,-1.443443 -0.592309,-1.871416 4.089172,-4.195767 1.916848,0.422754 1.589055,5.63921 z"
       inkscape:transform-center-x="0.65490509"
       inkscape:transform-center-y="0.88473275"
       transform="matrix(1.3958243,0.27878583,-0.40601095,1.1675597,162.9,-21.481237)" />
    <path
       sodipodi:type="star"
       style="fill:#fc5920;fill-opacity:1;stroke:#010100;stroke-width:0.393691;stroke-linejoin:round;stroke-dasharray:none;stroke-opacity:1"
       id="path7-3-9-2-6-3-9"
       inkscape:flatsided="false"
       sodipodi:sides="3"
       sodipodi:cx="30.185705"
       sodipodi:cy="16.182028"
       sodipodi:r1="4.0950336"
       sodipodi:r2="4.0430498"
       sodipodi:arg1="1.0098955"
       sodipodi:arg2="2.6172486"
       inkscape:rounded="0"
       inkscape:randomized="0"
       d="m 32.364055,19.649605 -5.678226,-1.443443 -0.592309,-1.871416 4.089172,-4.195767 1.916848,0.422754 1.589055,5.63921 z"
       inkscape:transform-center-x="1.8278076"
       inkscape:transform-center-y="-0.33752455"
       transform="matrix(-0.97284014,0.87163084,-1.0839011,-0.82041891,245.11624,15.184137)" />
    <path
       sodipodi:type="star"
       style="fill:#fc5920;fill-opacity:1;stroke:#010100;stroke-width:0.393691;stroke-linejoin:round;stroke-dasharray:none;stroke-opacity:1"
       id="path7-3-2-4-1-4-6-2"
       inkscape:flatsided="false"
       sodipodi:sides="3"
       sodipodi:cx="30.185705"
       sodipodi:cy="16.182028"
       sodipodi:r1="4.0950336"
       sodipodi:r2="4.0430498"
       sodipodi:arg1="1.0098955"
       sodipodi:arg2="2.6172486"
       inkscape:rounded="0"
       inkscape:randomized="0"
       d="m 32.364055,19.649605 -5.678226,-1.443443 -0.592309,-1.871416 4.089172,-4.195767 1.916848,0.422754 1.589055,5.63921 z"
       inkscape:transform-center-x="-0.60422922"
       inkscape:transform-center-y="-0.99029917"
       transform="matrix(-1.373702,-0.36133003,0.48209167,-1.1419535,207.84294,57.781224)" />
    <path
       sodipodi:type="star"
       style="fill:#fc5920;fill-opacity:1;stroke:#010100;stroke-width:0.393691;stroke-linejoin:round;stroke-dasharray:none;stroke-opacity:1"
       id="path7-3-2-1-0-8-1-2-8"
       inkscape:flatsided="false"
       sodipodi:sides="3"
       sodipodi:cx="30.185705"
       sodipodi:cy="16.182028"
       sodipodi:r1="4.0950336"
       sodipodi:r2="4.0430498"
       sodipodi:arg1="1.0098955"
       sodipodi:arg2="2.6172486"
       inkscape:rounded="0"
       inkscape:randomized="0"
       d="m 32.364055,19.649605 -5.678226,-1.443443 -0.592309,-1.871416 4.089172,-4.195767 1.916848,0.422754 1.589055,5.63921 z"
       inkscape:transform-center-x="-0.60226922"
       inkscape:transform-center-y="-1.133355"
       transform="matrix(-1.368934,-0.47306474,0.478929,-1.1076745,207.81886,37.738376)" />
    <rect
       style="fill:url(#radialGradient7-4-0-5-8-3);stroke:#010100;stroke-width:0.519746;stroke-linejoin:round;stroke-dasharray:none"
       id="rect3-3-8-3-3-1"
       width="24.024405"
       height="20.013439"
       x="174.34995"
       y="7.0582271"
       ry="1.8245875" />
    <ellipse
       style="fill:#1a1a1a;fill-opacity:1;stroke:none;stroke-width:0.519746;stroke-linejoin:round;stroke-dasharray:none"
       id="path6-8-1-0-8-9"
       cx="186.23537"
       cy="17.10947"
       rx="3.9843371"
       ry="3.2698607" />
  </g>
  <ellipse
     style="fill:#1b1734;fill-opacity:1;stroke:#010100;stroke-width:0.459995;stroke-linejoin:round;stroke-dasharray:none;stroke-opacity:1"
     id="path10-6"
     cx="-40.263554"
     cy="16.254271"
     rx="1.8035182"
     ry="4.5087953"
     transform="rotate(-76.553303)" />
  <ellipse
     style="fill:#1b1734;fill-opacity:1;stroke:#010100;stroke-width:0.459995;stroke-linejoin:round;stroke-dasharray:none;stroke-opacity:1"
     id="path10-6-4"
     cx="-58.6493"
     cy="-10.707607"
     rx="1.8035182"
     ry="4.5087953"
     transform="rotate(-106.5533)" />
  <ellipse
     style="fill:#1b1734;fill-opacity:1;stroke:#010100;stroke-width:0.459995;stroke-linejoin:round;stroke-dasharray:none;stroke-opacity:1"
     id="path10-6-4-6"
     cx="-51.526981"
     cy="39.194382"
     rx="1.8035182"
     ry="4.5087953"
     transform="rotate(-76.5533)" />
  <ellipse
     style="fill:#1b1734;fill-opacity:1;stroke:#010100;stroke-width:0.459995;stroke-linejoin:round;stroke-dasharray:none;stroke-opacity:1"
     id="path10-6-4-6-0"
     cx="-48.590797"
     cy="12.766886"
     rx="1.8035182"
     ry="4.5087953"
     transform="rotate(-106.5533)" />
  <g
     inkscape:groupmode="layer"
     id="layer2"
     inkscape:label="Ebene 2">
    <ellipse
       style="fill:#420264;fill-opacity:1;stroke:#010100;stroke-width:0.470205;stroke-linejoin:round;stroke-dasharray:none;stroke-opacity:1"
       id="path8-9"
       cx="48.177948"
       cy="23.959925"
       rx="11.396483"
       ry="11.396484"
       transform="rotate(45.252522)" />
    <circle
       style="fill:#896fbc;fill-opacity:1;stroke:#010100;stroke-width:0.363487;stroke-linejoin:round;stroke-dasharray:none;stroke-opacity:1"
       id="path9-6"
       cx="48.177948"
       cy="15.694426"
       transform="rotate(45.252522)"
       r="3.130985" />
    <circle
       style="fill:#896fbc;fill-opacity:1;stroke:#010100;stroke-width:0.363487;stroke-linejoin:round;stroke-dasharray:none;stroke-opacity:1"
       id="path9-2-1"
       cx="45.674892"
       cy="21.45686"
       transform="rotate(45.252522)"
       r="3.130985" />
    <circle
       style="fill:#896fbc;fill-opacity:1;stroke:#010100;stroke-width:0.363487;stroke-linejoin:round;stroke-dasharray:none;stroke-opacity:1"
       id="path9-2-5-0"
       cx="50.283295"
       cy="26.096605"
       transform="rotate(45.252522)"
       r="3.130985" />
    <circle
       style="fill:#896fbc;fill-opacity:1;stroke:#010100;stroke-width:0.363487;stroke-linejoin:round;stroke-dasharray:none;stroke-opacity:1"
       id="path9-1-8"
       cx="39.912453"
       cy="23.959925"
       transform="rotate(45.252522)"
       r="3.130985" />
    <circle
       style="fill:#896fbc;fill-opacity:1;stroke:#010100;stroke-width:0.363487;stroke-linejoin:round;stroke-dasharray:none;stroke-opacity:1"
       id="path9-1-9-6-0"
       cx="48.177948"
       cy="32.225426"
       transform="rotate(45.252522)"
       r="3.130985" />
    <circle
       style="fill:#896fbc;fill-opacity:1;stroke:#010100;stroke-width:0.363487;stroke-linejoin:round;stroke-dasharray:none;stroke-opacity:1"
       id="path9-1-9-6-8-9"
       cx="56.443443"
       cy="23.959925"
       transform="rotate(45.252522)"
       r="3.130985" />
    <circle
       style="fill:#896fbc;fill-opacity:1;stroke:#010100;stroke-width:0.363487;stroke-linejoin:round;stroke-dasharray:none;stroke-opacity:1"
       id="path9-1-9-6-8-2-5"
       cx="53.887608"
       cy="18.162216"
       transform="rotate(45.252522)"
       r="3.130985" />
    <ellipse
       style="fill:#1b1734;fill-opacity:1;stroke:#010100;stroke-width:0.459995;stroke-linejoin:round;stroke-dasharray:none;stroke-opacity:1"
       id="path10-6-9"
       cx="-32.311295"
       cy="48.345531"
       rx="1.8035182"
       ry="4.5087953"
       transform="rotate(-76.553303)" />
    <ellipse
       style="fill:#1b1734;fill-opacity:1;stroke:#010100;stroke-width:0.459995;stroke-linejoin:round;stroke-dasharray:none;stroke-opacity:1"
       id="path10-6-4-62"
       cx="-68.298599"
       cy="22.398676"
       rx="1.8035182"
       ry="4.5087953"
       transform="rotate(-106.5533)" />
    <ellipse
       style="fill:#1b1734;fill-opacity:1;stroke:#010100;stroke-width:0.459995;stroke-linejoin:round;stroke-dasharray:none;stroke-opacity:1"
       id="path10-6-4-6-03"
       cx="-43.766525"
       cy="73.159866"
       rx="1.8035182"
       ry="4.5087953"
       transform="rotate(-76.5533)" />
    <ellipse
       style="fill:#1b1734;fill-opacity:1;stroke:#010100;stroke-width:0.459995;stroke-linejoin:round;stroke-dasharray:none;stroke-opacity:1"
       id="path10-6-4-6-0-1"
       cx="-58.456711"
       cy="44.417435"
       rx="1.8035182"
       ry="4.5087953"
       transform="rotate(-106.5533)" />
    <ellipse
       style="fill:#420264;fill-opacity:1;stroke:#010100;stroke-width:0.470205;stroke-linejoin:round;stroke-dasharray:none;stroke-opacity:1"
       id="path8-9-5"
       cx="72.075096"
       cy="-0.029617231"
       rx="11.396483"
       ry="11.396484"
       transform="rotate(45.252522)" />
    <circle
       style="fill:#896fbc;fill-opacity:1;stroke:#010100;stroke-width:0.363487;stroke-linejoin:round;stroke-dasharray:none;stroke-opacity:1"
       id="path9-6-1"
       cx="72.075096"
       cy="-8.2951164"
       transform="rotate(45.252522)"
       r="3.130985" />
    <circle
       style="fill:#896fbc;fill-opacity:1;stroke:#010100;stroke-width:0.363487;stroke-linejoin:round;stroke-dasharray:none;stroke-opacity:1"
       id="path9-2-1-4"
       cx="69.572037"
       cy="-2.5326822"
       transform="rotate(45.252522)"
       r="3.130985" />
    <circle
       style="fill:#896fbc;fill-opacity:1;stroke:#010100;stroke-width:0.363487;stroke-linejoin:round;stroke-dasharray:none;stroke-opacity:1"
       id="path9-2-5-0-0"
       cx="74.180443"
       cy="2.1070633"
       transform="rotate(45.252522)"
       r="3.130985" />
    <circle
       style="fill:#896fbc;fill-opacity:1;stroke:#010100;stroke-width:0.363487;stroke-linejoin:round;stroke-dasharray:none;stroke-opacity:1"
       id="path9-1-8-9"
       cx="63.809605"
       cy="-0.029617231"
       transform="rotate(45.252522)"
       r="3.130985" />
    <circle
       style="fill:#896fbc;fill-opacity:1;stroke:#010100;stroke-width:0.363487;stroke-linejoin:round;stroke-dasharray:none;stroke-opacity:1"
       id="path9-1-9-6-0-8"
       cx="72.075096"
       cy="8.2358837"
       transform="rotate(45.252522)"
       r="3.130985" />
    <circle
       style="fill:#896fbc;fill-opacity:1;stroke:#010100;stroke-width:0.363487;stroke-linejoin:round;stroke-dasharray:none;stroke-opacity:1"
       id="path9-1-9-6-8-9-8"
       cx="80.340591"
       cy="-0.029617231"
       transform="rotate(45.252522)"
       r="3.130985" />
    <circle
       style="fill:#896fbc;fill-opacity:1;stroke:#010100;stroke-width:0.363487;stroke-linejoin:round;stroke-dasharray:none;stroke-opacity:1"
       id="path9-1-9-6-8-2-5-4"
       cx="77.784752"
       cy="-5.8273253"
       transform="rotate(45.252522)"
       r="3.130985" />
    <ellipse
       style="fill:#1b1734;fill-opacity:1;stroke:#010100;stroke-width:0.459995;stroke-linejoin:round;stroke-dasharray:none;stroke-opacity:1"
       id="path10-6-9-8"
       cx="-24.621038"
       cy="80.612816"
       rx="1.8035182"
       ry="4.5087953"
       transform="rotate(-76.553303)" />
    <ellipse
       style="fill:#1b1734;fill-opacity:1;stroke:#010100;stroke-width:0.459995;stroke-linejoin:round;stroke-dasharray:none;stroke-opacity:1"
       id="path10-6-4-62-0"
       cx="-77.938004"
       cy="55.993965"
       rx="1.8035182"
       ry="4.5087953"
       transform="rotate(-106.5533)" />
    <ellipse
       style="fill:#1b1734;fill-opacity:1;stroke:#010100;stroke-width:0.459995;stroke-linejoin:round;stroke-dasharray:none;stroke-opacity:1"
       id="path10-6-4-6-03-9"
       cx="-36.177834"
       cy="106.91412"
       rx="1.8035182"
       ry="4.5087953"
       transform="rotate(-76.5533)" />
    <ellipse
       style="fill:#1b1734;fill-opacity:1;stroke:#010100;stroke-width:0.459995;stroke-linejoin:round;stroke-dasharray:none;stroke-opacity:1"
       id="path10-6-4-6-0-1-3"
       cx="-68.280533"
       cy="75.824516"
       rx="1.8035182"
       ry="4.5087953"
       transform="rotate(-106.5533)" />
    <ellipse
       style="fill:#420264;fill-opacity:1;stroke:#010100;stroke-width:0.470205;stroke-linejoin:round;stroke-dasharray:none;stroke-opacity:1"
       id="path8-9-5-1"
       cx="96.008453"
       cy="-23.888161"
       rx="11.396483"
       ry="11.396484"
       transform="rotate(45.252522)" />
    <circle
       style="fill:#896fbc;fill-opacity:1;stroke:#010100;stroke-width:0.363487;stroke-linejoin:round;stroke-dasharray:none;stroke-opacity:1"
       id="path9-6-1-7"
       cx="96.008453"
       cy="-32.15366"
       transform="rotate(45.252522)"
       r="3.130985" />
    <circle
       style="fill:#896fbc;fill-opacity:1;stroke:#010100;stroke-width:0.363487;stroke-linejoin:round;stroke-dasharray:none;stroke-opacity:1"
       id="path9-2-1-4-9"
       cx="93.505394"
       cy="-26.391226"
       transform="rotate(45.252522)"
       r="3.130985" />
    <circle
       style="fill:#896fbc;fill-opacity:1;stroke:#010100;stroke-width:0.363487;stroke-linejoin:round;stroke-dasharray:none;stroke-opacity:1"
       id="path9-2-5-0-0-4"
       cx="98.1138"
       cy="-21.75148"
       transform="rotate(45.252522)"
       r="3.130985" />
    <circle
       style="fill:#896fbc;fill-opacity:1;stroke:#010100;stroke-width:0.363487;stroke-linejoin:round;stroke-dasharray:none;stroke-opacity:1"
       id="path9-1-8-9-8"
       cx="87.742958"
       cy="-23.888161"
       transform="rotate(45.252522)"
       r="3.130985" />
    <circle
       style="fill:#896fbc;fill-opacity:1;stroke:#010100;stroke-width:0.363487;stroke-linejoin:round;stroke-dasharray:none;stroke-opacity:1"
       id="path9-1-9-6-0-8-2"
       cx="96.008453"
       cy="-15.622659"
       transform="rotate(45.252522)"
       r="3.130985" />
    <circle
       style="fill:#896fbc;fill-opacity:1;stroke:#010100;stroke-width:0.363487;stroke-linejoin:round;stroke-dasharray:none;stroke-opacity:1"
       id="path9-1-9-6-8-9-8-4"
       cx="104.27395"
       cy="-23.888161"
       transform="rotate(45.252522)"
       r="3.130985" />
    <circle
       style="fill:#896fbc;fill-opacity:1;stroke:#010100;stroke-width:0.363487;stroke-linejoin:round;stroke-dasharray:none;stroke-opacity:1"
       id="path9-1-9-6-8-2-5-4-9"
       cx="101.71811"
       cy="-29.685869"
       transform="rotate(45.252522)"
       r="3.130985" />
    <ellipse
       style="fill:#1b1734;fill-opacity:1;stroke:#010100;stroke-width:0.459995;stroke-linejoin:round;stroke-dasharray:none;stroke-opacity:1"
       id="path10-6-9-8-7"
       cx="-17.108498"
       cy="114.40943"
       rx="1.8035182"
       ry="4.5087953"
       transform="rotate(-76.553303)" />
    <ellipse
       style="fill:#1b1734;fill-opacity:1;stroke:#010100;stroke-width:0.459995;stroke-linejoin:round;stroke-dasharray:none;stroke-opacity:1"
       id="path10-6-4-62-0-7"
       cx="-88.05397"
       cy="87.153191"
       rx="1.8035182"
       ry="4.5087953"
       transform="rotate(-106.5533)" />
    <ellipse
       style="fill:#1b1734;fill-opacity:1;stroke:#010100;stroke-width:0.459995;stroke-linejoin:round;stroke-dasharray:none;stroke-opacity:1"
       id="path10-6-4-6-03-9-6"
       cx="-28.518604"
       cy="139.03012"
       rx="1.8035182"
       ry="4.5087953"
       transform="rotate(-76.5533)" />
    <ellipse
       style="fill:#1b1734;fill-opacity:1;stroke:#010100;stroke-width:0.459995;stroke-linejoin:round;stroke-dasharray:none;stroke-opacity:1"
       id="path10-6-4-6-0-1-3-9"
       cx="-78.212082"
       cy="109.17196"
       rx="1.8035182"
       ry="4.5087953"
       transform="rotate(-106.5533)" />
    <ellipse
       style="fill:#420264;fill-opacity:1;stroke:#010100;stroke-width:0.470205;stroke-linejoin:round;stroke-dasharray:none;stroke-opacity:1"
       id="path8-9-5-1-1"
       cx="120.08053"
       cy="-47.767452"
       rx="11.396483"
       ry="11.396484"
       transform="rotate(45.252522)" />
    <circle
       style="fill:#896fbc;fill-opacity:1;stroke:#010100;stroke-width:0.363487;stroke-linejoin:round;stroke-dasharray:none;stroke-opacity:1"
       id="path9-6-1-7-8"
       cx="120.08053"
       cy="-56.032951"
       transform="rotate(45.252522)"
       r="3.130985" />
    <circle
       style="fill:#896fbc;fill-opacity:1;stroke:#010100;stroke-width:0.363487;stroke-linejoin:round;stroke-dasharray:none;stroke-opacity:1"
       id="path9-2-1-4-9-6"
       cx="117.57747"
       cy="-50.270519"
       transform="rotate(45.252522)"
       r="3.130985" />
    <circle
       style="fill:#896fbc;fill-opacity:1;stroke:#010100;stroke-width:0.363487;stroke-linejoin:round;stroke-dasharray:none;stroke-opacity:1"
       id="path9-2-5-0-0-4-6"
       cx="122.18587"
       cy="-45.630772"
       transform="rotate(45.252522)"
       r="3.130985" />
    <circle
       style="fill:#896fbc;fill-opacity:1;stroke:#010100;stroke-width:0.363487;stroke-linejoin:round;stroke-dasharray:none;stroke-opacity:1"
       id="path9-1-8-9-8-0"
       cx="111.81503"
       cy="-47.767452"
       transform="rotate(45.252522)"
       r="3.130985" />
    <circle
       style="fill:#896fbc;fill-opacity:1;stroke:#010100;stroke-width:0.363487;stroke-linejoin:round;stroke-dasharray:none;stroke-opacity:1"
       id="path9-1-9-6-0-8-2-8"
       cx="120.08053"
       cy="-39.501953"
       transform="rotate(45.252522)"
       r="3.130985" />
    <circle
       style="fill:#896fbc;fill-opacity:1;stroke:#010100;stroke-width:0.363487;stroke-linejoin:round;stroke-dasharray:none;stroke-opacity:1"
       id="path9-1-9-6-8-9-8-4-2"
       cx="128.34602"
       cy="-47.767452"
       transform="rotate(45.252522)"
       r="3.130985" />
    <circle
       style="fill:#896fbc;fill-opacity:1;stroke:#010100;stroke-width:0.363487;stroke-linejoin:round;stroke-dasharray:none;stroke-opacity:1"
       id="path9-1-9-6-8-2-5-4-9-2"
       cx="125.79018"
       cy="-53.565163"
       transform="rotate(45.252522)"
       r="3.130985" />
    <ellipse
       style="fill:#1b1734;fill-opacity:1;stroke:#010100;stroke-width:0.459995;stroke-linejoin:round;stroke-dasharray:none;stroke-opacity:1"
       id="path10-6-9-8-7-7"
       cx="-9.300539"
       cy="148.09923"
       rx="1.8035182"
       ry="4.5087953"
       transform="rotate(-76.553303)" />
    <ellipse
       style="fill:#1b1734;fill-opacity:1;stroke:#010100;stroke-width:0.459995;stroke-linejoin:round;stroke-dasharray:none;stroke-opacity:1"
       id="path10-6-4-62-0-7-7"
       cx="-97.757004"
       cy="118.95499"
       rx="1.8035182"
       ry="4.5087953"
       transform="rotate(-106.5533)" />
    <ellipse
       style="fill:#1b1734;fill-opacity:1;stroke:#010100;stroke-width:0.459995;stroke-linejoin:round;stroke-dasharray:none;stroke-opacity:1"
       id="path10-6-4-6-03-9-6-7"
       cx="-20.563957"
       cy="171.03932"
       rx="1.8035182"
       ry="4.5087953"
       transform="rotate(-76.5533)" />
    <ellipse
       style="fill:#1b1734;fill-opacity:1;stroke:#010100;stroke-width:0.459995;stroke-linejoin:round;stroke-dasharray:none;stroke-opacity:1"
       id="path10-6-4-6-0-1-3-9-6"
       cx="-87.698502"
       cy="142.42947"
       rx="1.8035182"
       ry="4.5087953"
       transform="rotate(-106.5533)" />
    <ellipse
       style="fill:#420264;fill-opacity:1;stroke:#010100;stroke-width:0.470205;stroke-linejoin:round;stroke-dasharray:none;stroke-opacity:1"
       id="path8-9-5-1-1-1"
       cx="143.90613"
       cy="-71.841507"
       rx="11.396483"
       ry="11.396484"
       transform="rotate(45.252522)" />
    <circle
       style="fill:#896fbc;fill-opacity:1;stroke:#010100;stroke-width:0.363487;stroke-linejoin:round;stroke-dasharray:none;stroke-opacity:1"
       id="path9-6-1-7-8-1"
       cx="143.90613"
       cy="-80.10701"
       transform="rotate(45.252522)"
       r="3.130985" />
    <circle
       style="fill:#896fbc;fill-opacity:1;stroke:#010100;stroke-width:0.363487;stroke-linejoin:round;stroke-dasharray:none;stroke-opacity:1"
       id="path9-2-1-4-9-6-0"
       cx="141.40308"
       cy="-74.344574"
       transform="rotate(45.252522)"
       r="3.130985" />
    <circle
       style="fill:#896fbc;fill-opacity:1;stroke:#010100;stroke-width:0.363487;stroke-linejoin:round;stroke-dasharray:none;stroke-opacity:1"
       id="path9-2-5-0-0-4-6-8"
       cx="146.01147"
       cy="-69.704826"
       transform="rotate(45.252522)"
       r="3.130985" />
    <circle
       style="fill:#896fbc;fill-opacity:1;stroke:#010100;stroke-width:0.363487;stroke-linejoin:round;stroke-dasharray:none;stroke-opacity:1"
       id="path9-1-8-9-8-0-2"
       cx="135.64064"
       cy="-71.841507"
       transform="rotate(45.252522)"
       r="3.130985" />
    <circle
       style="fill:#896fbc;fill-opacity:1;stroke:#010100;stroke-width:0.363487;stroke-linejoin:round;stroke-dasharray:none;stroke-opacity:1"
       id="path9-1-9-6-0-8-2-8-2"
       cx="143.90613"
       cy="-63.576012"
       transform="rotate(45.252522)"
       r="3.130985" />
    <circle
       style="fill:#896fbc;fill-opacity:1;stroke:#010100;stroke-width:0.363487;stroke-linejoin:round;stroke-dasharray:none;stroke-opacity:1"
       id="path9-1-9-6-8-9-8-4-2-5"
       cx="152.17163"
       cy="-71.841507"
       transform="rotate(45.252522)"
       r="3.130985" />
    <circle
       style="fill:#896fbc;fill-opacity:1;stroke:#010100;stroke-width:0.363487;stroke-linejoin:round;stroke-dasharray:none;stroke-opacity:1"
       id="path9-1-9-6-8-2-5-4-9-2-2"
       cx="149.61578"
       cy="-77.639221"
       transform="rotate(45.252522)"
       r="3.130985" />
    <ellipse
       style="fill:#1b1734;fill-opacity:1;stroke:#010100;stroke-width:0.459995;stroke-linejoin:round;stroke-dasharray:none;stroke-opacity:1"
       id="path10-6-9-8-7-7-4"
       cx="-1.440429"
       cy="182.12073"
       rx="1.8035182"
       ry="4.5087953"
       transform="rotate(-76.553303)" />
    <ellipse
       style="fill:#1b1734;fill-opacity:1;stroke:#010100;stroke-width:0.459995;stroke-linejoin:round;stroke-dasharray:none;stroke-opacity:1"
       id="path10-6-4-62-0-7-7-6"
       cx="-107.65908"
       cy="150.39752"
       rx="1.8035182"
       ry="4.5087953"
       transform="rotate(-106.5533)" />
    <ellipse
       style="fill:#1b1734;fill-opacity:1;stroke:#010100;stroke-width:0.459995;stroke-linejoin:round;stroke-dasharray:none;stroke-opacity:1"
       id="path10-6-4-6-03-9-6-7-9"
       cx="-12.681213"
       cy="202.86136"
       rx="1.8035182"
       ry="4.5087953"
       transform="rotate(-76.5533)" />
    <ellipse
       style="fill:#1b1734;fill-opacity:1;stroke:#010100;stroke-width:0.459995;stroke-linejoin:round;stroke-dasharray:none;stroke-opacity:1"
       id="path10-6-4-6-0-1-3-9-6-1"
       cx="-97.271034"
       cy="176.19611"
       rx="1.8035182"
       ry="4.5087953"
       transform="rotate(-106.5533)" />
    <ellipse
       style="fill:#420264;fill-opacity:1;stroke:#010100;stroke-width:0.470205;stroke-linejoin:round;stroke-dasharray:none;stroke-opacity:1"
       id="path8-9-5-1-1-1-7"
       cx="167.73575"
       cy="-95.882103"
       rx="11.396483"
       ry="11.396484"
       transform="rotate(45.252522)" />
    <circle
       style="fill:#896fbc;fill-opacity:1;stroke:#010100;stroke-width:0.363487;stroke-linejoin:round;stroke-dasharray:none;stroke-opacity:1"
       id="path9-6-1-7-8-1-5"
       cx="167.73575"
       cy="-104.14761"
       transform="rotate(45.252522)"
       r="3.130985" />
    <circle
       style="fill:#896fbc;fill-opacity:1;stroke:#010100;stroke-width:0.363487;stroke-linejoin:round;stroke-dasharray:none;stroke-opacity:1"
       id="path9-2-1-4-9-6-0-3"
       cx="165.2327"
       cy="-98.38517"
       transform="rotate(45.252522)"
       r="3.130985" />
    <circle
       style="fill:#896fbc;fill-opacity:1;stroke:#010100;stroke-width:0.363487;stroke-linejoin:round;stroke-dasharray:none;stroke-opacity:1"
       id="path9-2-5-0-0-4-6-8-1"
       cx="169.84109"
       cy="-93.745422"
       transform="rotate(45.252522)"
       r="3.130985" />
    <circle
       style="fill:#896fbc;fill-opacity:1;stroke:#010100;stroke-width:0.363487;stroke-linejoin:round;stroke-dasharray:none;stroke-opacity:1"
       id="path9-1-8-9-8-0-2-5"
       cx="159.47026"
       cy="-95.882103"
       transform="rotate(45.252522)"
       r="3.130985" />
    <circle
       style="fill:#896fbc;fill-opacity:1;stroke:#010100;stroke-width:0.363487;stroke-linejoin:round;stroke-dasharray:none;stroke-opacity:1"
       id="path9-1-9-6-0-8-2-8-2-9"
       cx="167.73575"
       cy="-87.616608"
       transform="rotate(45.252522)"
       r="3.130985" />
    <circle
       style="fill:#896fbc;fill-opacity:1;stroke:#010100;stroke-width:0.363487;stroke-linejoin:round;stroke-dasharray:none;stroke-opacity:1"
       id="path9-1-9-6-8-9-8-4-2-5-7"
       cx="176.00125"
       cy="-95.882103"
       transform="rotate(45.252522)"
       r="3.130985" />
    <circle
       style="fill:#896fbc;fill-opacity:1;stroke:#010100;stroke-width:0.363487;stroke-linejoin:round;stroke-dasharray:none;stroke-opacity:1"
       id="path9-1-9-6-8-2-5-4-9-2-2-6"
       cx="173.4454"
       cy="-101.67982"
       transform="rotate(45.252522)"
       r="3.130985" />
    <ellipse
       style="opacity:1;fill:#bfff02;fill-opacity:1;stroke:#010100;stroke-width:0.80237;stroke-linejoin:round;stroke-dasharray:none;stroke-opacity:1"
       id="path13"
       cx="16.969727"
       cy="85.014221"
       rx="11.967348"
       ry="11.495494" />
    <path
       sodipodi:type="star"
       style="fill:#8bb900;fill-opacity:1;stroke:#010100;stroke-width:0.529167;stroke-linejoin:round;stroke-dasharray:none;stroke-opacity:1"
       id="path15-8"
       inkscape:flatsided="false"
       sodipodi:sides="3"
       sodipodi:cx="28.185183"
       sodipodi:cy="74.197266"
       sodipodi:r1="4.4193053"
       sodipodi:r2="1.8706946"
       sodipodi:arg1="0.090659887"
       sodipodi:arg2="1.1378574"
       inkscape:rounded="0"
       inkscape:randomized="0"
       d="m 32.586339,74.597371 -3.616324,1.297993 -3.331912,1.913362 0.684067,-3.780825 0.0089,-3.842201 2.932257,2.482832 z"
       inkscape:transform-center-x="1.6839741"
       inkscape:transform-center-y="-0.027988276"
       transform="matrix(0.90241595,1.2070948,-1.2566422,0.86683508,97.7977,-13.197291)" />
    <path
       sodipodi:type="star"
       style="fill:#8bb900;fill-opacity:1;stroke:#010100;stroke-width:0.529167;stroke-linejoin:round;stroke-dasharray:none;stroke-opacity:1"
       id="path15-8-1-2"
       inkscape:flatsided="false"
       sodipodi:sides="3"
       sodipodi:cx="28.185183"
       sodipodi:cy="74.197266"
       sodipodi:r1="4.4193053"
       sodipodi:r2="1.8706946"
       sodipodi:arg1="0.090659887"
       sodipodi:arg2="1.1378574"
       inkscape:rounded="0"
       inkscape:randomized="0"
       d="m 32.586339,74.597371 -3.616324,1.297993 -3.331912,1.913362 0.684067,-3.780825 0.0089,-3.842201 2.932257,2.482832 z"
       inkscape:transform-center-x="0.02625246"
       inkscape:transform-center-y="1.619984"
       transform="matrix(0.15189836,1.4789156,-1.5396204,0.14590924,126.94632,18.952031)" />
    <path
       sodipodi:type="star"
       style="fill:#8bb900;fill-opacity:1;stroke:#010100;stroke-width:0.529167;stroke-linejoin:round;stroke-dasharray:none;stroke-opacity:1"
       id="path15-8-1-2-0"
       inkscape:flatsided="false"
       sodipodi:sides="3"
       sodipodi:cx="28.185183"
       sodipodi:cy="74.197266"
       sodipodi:r1="4.4193053"
       sodipodi:r2="1.8706946"
       sodipodi:arg1="0.090659887"
       sodipodi:arg2="1.1378574"
       inkscape:rounded="0"
       inkscape:randomized="0"
       d="m 32.586339,74.597371 -3.616324,1.297993 -3.331912,1.913362 0.684067,-3.780825 0.0089,-3.842201 2.932257,2.482832 z"
       inkscape:transform-center-x="-1.6998048"
       inkscape:transform-center-y="0.01049127"
       transform="matrix(1.5402864,-0.13927409,0.14499084,1.4795552,-50.33221,-20.550941)" />
    <path
       sodipodi:type="star"
       style="fill:#8bb900;fill-opacity:1;stroke:#010100;stroke-width:0.529167;stroke-linejoin:round;stroke-dasharray:none;stroke-opacity:1"
       id="path15-8-1-2-0-1-2"
       inkscape:flatsided="false"
       sodipodi:sides="3"
       sodipodi:cx="28.185183"
       sodipodi:cy="74.197266"
       sodipodi:r1="4.4193053"
       sodipodi:r2="1.8706946"
       sodipodi:arg1="0.090659887"
       sodipodi:arg2="1.1378574"
       inkscape:rounded="0"
       inkscape:randomized="0"
       d="m 32.586339,74.597371 -3.616324,1.297993 -3.331912,1.913362 0.684067,-3.780825 0.0089,-3.842201 2.932257,2.482832 z"
       inkscape:transform-center-x="0.036995803"
       inkscape:transform-center-y="-1.6110034"
       transform="matrix(1.3972485,0.63803999,-0.66422953,1.3421572,26.560609,-19.710507)" />
    <path
       sodipodi:type="star"
       style="opacity:1;fill:#384b00;fill-opacity:1;stroke:#010100;stroke-width:0.785946;stroke-linejoin:round;stroke-dasharray:none;stroke-opacity:1"
       id="path15"
       inkscape:flatsided="false"
       sodipodi:sides="5"
       sodipodi:cx="39.299213"
       sodipodi:cy="88.156487"
       sodipodi:r1="5.1695414"
       sodipodi:r2="5.9326835"
       sodipodi:arg1="1.018578"
       sodipodi:arg2="1.6806539"
       inkscape:rounded="0"
       inkscape:randomized="0"
       d="m 42.011037,92.557642 -3.362264,1.495764 -2.697308,-1.95779 -2.461552,-2.735486 1.028455,-3.170284 1.84094,-3.186387 3.332929,-0.0016 3.599316,0.76619 1.031408,3.169324 0.383559,3.659919 z"
       inkscape:transform-center-x="0.98087935"
       inkscape:transform-center-y="-1.1222558"
       transform="matrix(0.66446691,-0.77055111,0.80217981,0.63826801,-69.710294,68.950688)" />
    <path
       sodipodi:type="star"
       style="fill:#384b00;fill-opacity:1;stroke:#010100;stroke-width:0.785946;stroke-linejoin:round;stroke-dasharray:none;stroke-opacity:1"
       id="path15-4"
       inkscape:flatsided="false"
       sodipodi:sides="5"
       sodipodi:cx="39.299213"
       sodipodi:cy="88.156487"
       sodipodi:r1="5.1695414"
       sodipodi:r2="5.9326835"
       sodipodi:arg1="1.018578"
       sodipodi:arg2="1.6806539"
       inkscape:rounded="0"
       inkscape:randomized="0"
       d="m 42.011037,92.557642 -3.362264,1.495764 -2.697308,-1.95779 -2.461552,-2.735486 1.028455,-3.170284 1.84094,-3.186387 3.332929,-0.0016 3.599316,0.76619 1.031408,3.169324 0.383559,3.659919 z"
       inkscape:transform-center-x="1.284578"
       inkscape:transform-center-y="0.78633205"
       transform="matrix(-0.76170305,-0.68249078,0.71050489,-0.73167028,-5.5280324,166.22487)" />
    <path
       sodipodi:type="star"
       style="fill:#384b00;fill-opacity:1;stroke:#010100;stroke-width:0.785946;stroke-linejoin:round;stroke-dasharray:none;stroke-opacity:1"
       id="path15-4-5"
       inkscape:flatsided="false"
       sodipodi:sides="5"
       sodipodi:cx="39.299213"
       sodipodi:cy="88.156487"
       sodipodi:r1="5.1695414"
       sodipodi:r2="5.9326835"
       sodipodi:arg1="1.018578"
       sodipodi:arg2="1.6806539"
       inkscape:rounded="0"
       inkscape:randomized="0"
       d="m 42.011037,92.557642 -3.362264,1.495764 -2.697308,-1.95779 -2.461552,-2.735486 1.028455,-3.170284 1.84094,-3.186387 3.332929,-0.0016 3.599316,0.76619 1.031408,3.169324 0.383559,3.659919 z"
       inkscape:transform-center-x="-0.85028185"
       inkscape:transform-center-y="1.2272094"
       transform="matrix(-0.70177348,0.73940472,-0.76975497,-0.67410364,101.86685,105.37988)" />
    <path
       sodipodi:type="star"
       style="fill:#384b00;fill-opacity:1;stroke:#010100;stroke-width:0.785946;stroke-linejoin:round;stroke-dasharray:none;stroke-opacity:1"
       id="path15-4-5-8"
       inkscape:flatsided="false"
       sodipodi:sides="5"
       sodipodi:cx="39.299213"
       sodipodi:cy="88.156487"
       sodipodi:r1="5.1695414"
       sodipodi:r2="5.9326835"
       sodipodi:arg1="1.018578"
       sodipodi:arg2="1.6806539"
       inkscape:rounded="0"
       inkscape:randomized="0"
       d="m 42.011037,92.557642 -3.362264,1.495764 -2.697308,-1.95779 -2.461552,-2.735486 1.028455,-3.170284 1.84094,-3.186387 3.332929,-0.0016 3.599316,0.76619 1.031408,3.169324 0.383559,3.659919 z"
       inkscape:transform-center-x="-1.229386"
       inkscape:transform-center-y="-0.87986849"
       transform="matrix(0.78622411,0.65633148,-0.68327183,0.75522451,36.349223,2.1573984)" />
    <ellipse
       style="opacity:1;fill:#eaffac;fill-opacity:1;stroke:#010100;stroke-width:0.556778;stroke-linejoin:round;stroke-dasharray:none;stroke-opacity:1"
       id="path16"
       cx="16.974064"
       cy="84.85939"
       rx="4.015954"
       ry="3.8576112" />
    <ellipse
       style="fill:#bfff02;fill-opacity:1;stroke:#010100;stroke-width:0.802369;stroke-linejoin:round;stroke-dasharray:none;stroke-opacity:1"
       id="path13-0"
       cx="50.837551"
       cy="85.013191"
       rx="11.962548"
       ry="11.500063" />
    <path
       sodipodi:type="star"
       style="fill:#8bb900;fill-opacity:1;stroke:#010100;stroke-width:0.529167;stroke-linejoin:round;stroke-dasharray:none;stroke-opacity:1"
       id="path15-8-1"
       inkscape:flatsided="false"
       sodipodi:sides="3"
       sodipodi:cx="28.185183"
       sodipodi:cy="74.197266"
       sodipodi:r1="4.4193053"
       sodipodi:r2="1.8706946"
       sodipodi:arg1="0.090659887"
       sodipodi:arg2="1.1378574"
       inkscape:rounded="0"
       inkscape:randomized="0"
       d="m 32.586339,74.597371 -3.616324,1.297993 -3.331912,1.913362 0.684067,-3.780825 0.0089,-3.842201 2.932257,2.482832 z"
       inkscape:transform-center-x="1.683299"
       inkscape:transform-center-y="-0.027998569"
       transform="matrix(0.90205402,1.2075746,-1.2561382,0.8671796,131.63311,-13.237355)" />
    <path
       sodipodi:type="star"
       style="fill:#8bb900;fill-opacity:1;stroke:#010100;stroke-width:0.529167;stroke-linejoin:round;stroke-dasharray:none;stroke-opacity:1"
       id="path15-8-1-2-1"
       inkscape:flatsided="false"
       sodipodi:sides="3"
       sodipodi:cx="28.185183"
       sodipodi:cy="74.197266"
       sodipodi:r1="4.4193053"
       sodipodi:r2="1.8706946"
       sodipodi:arg1="0.090659887"
       sodipodi:arg2="1.1378574"
       inkscape:rounded="0"
       inkscape:randomized="0"
       d="m 32.586339,74.597371 -3.616324,1.297993 -3.331912,1.913362 0.684067,-3.780825 0.0089,-3.842201 2.932257,2.482832 z"
       inkscape:transform-center-x="0.026248457"
       inkscape:transform-center-y="1.620628"
       transform="matrix(0.15183744,1.4795034,-1.539003,0.14596723,160.77004,18.924745)" />
    <path
       sodipodi:type="star"
       style="fill:#8bb900;fill-opacity:1;stroke:#010100;stroke-width:0.529167;stroke-linejoin:round;stroke-dasharray:none;stroke-opacity:1"
       id="path15-8-1-2-0-0"
       inkscape:flatsided="false"
       sodipodi:sides="3"
       sodipodi:cx="28.185183"
       sodipodi:cy="74.197266"
       sodipodi:r1="4.4193053"
       sodipodi:r2="1.8706946"
       sodipodi:arg1="0.090659887"
       sodipodi:arg2="1.1378574"
       inkscape:rounded="0"
       inkscape:randomized="0"
       d="m 32.586339,74.597371 -3.616324,1.297993 -3.331912,1.913362 0.684067,-3.780825 0.0089,-3.842201 2.932257,2.482832 z"
       inkscape:transform-center-x="-1.6991254"
       inkscape:transform-center-y="0.010499672"
       transform="matrix(1.5396687,-0.13932945,0.14493269,1.4801433,-16.437393,-20.593927)" />
    <path
       sodipodi:type="star"
       style="fill:#8bb900;fill-opacity:1;stroke:#010100;stroke-width:0.529167;stroke-linejoin:round;stroke-dasharray:none;stroke-opacity:1"
       id="path15-8-1-2-0-1-2-6"
       inkscape:flatsided="false"
       sodipodi:sides="3"
       sodipodi:cx="28.185183"
       sodipodi:cy="74.197266"
       sodipodi:r1="4.4193053"
       sodipodi:r2="1.8706946"
       sodipodi:arg1="0.090659887"
       sodipodi:arg2="1.1378574"
       inkscape:rounded="0"
       inkscape:randomized="0"
       d="m 32.586339,74.597371 -3.616324,1.297993 -3.331912,1.913362 0.684067,-3.780825 0.0089,-3.842201 2.932257,2.482832 z"
       inkscape:transform-center-x="0.03697861"
       inkscape:transform-center-y="-1.611646"
       transform="matrix(1.3966882,0.63829358,-0.66396313,1.3426906,60.424586,-19.753159)" />
    <path
       sodipodi:type="star"
       style="fill:#384b00;fill-opacity:1;stroke:#010100;stroke-width:0.785946;stroke-linejoin:round;stroke-dasharray:none;stroke-opacity:1"
       id="path15-2"
       inkscape:flatsided="false"
       sodipodi:sides="5"
       sodipodi:cx="39.299213"
       sodipodi:cy="88.156487"
       sodipodi:r1="5.1695414"
       sodipodi:r2="5.9326835"
       sodipodi:arg1="1.018578"
       sodipodi:arg2="1.6806539"
       inkscape:rounded="0"
       inkscape:randomized="0"
       d="m 42.011037,92.557642 -3.362264,1.495764 -2.697308,-1.95779 -2.461552,-2.735486 1.028455,-3.170284 1.84094,-3.186387 3.332929,-0.0016 3.599316,0.76619 1.031408,3.169324 0.383559,3.659919 z"
       inkscape:transform-center-x="0.98048474"
       inkscape:transform-center-y="-1.1227017"
       transform="matrix(0.66420041,-0.77085737,0.80185809,0.63852169,-35.807705,68.943274)" />
    <path
       sodipodi:type="star"
       style="fill:#384b00;fill-opacity:1;stroke:#010100;stroke-width:0.785946;stroke-linejoin:round;stroke-dasharray:none;stroke-opacity:1"
       id="path15-4-0"
       inkscape:flatsided="false"
       sodipodi:sides="5"
       sodipodi:cx="39.299213"
       sodipodi:cy="88.156487"
       sodipodi:r1="5.1695414"
       sodipodi:r2="5.9326835"
       sodipodi:arg1="1.018578"
       sodipodi:arg2="1.6806539"
       inkscape:rounded="0"
       inkscape:randomized="0"
       d="m 42.011037,92.557642 -3.362264,1.495764 -2.697308,-1.95779 -2.461552,-2.735486 1.028455,-3.170284 1.84094,-3.186387 3.332929,-0.0016 3.599316,0.76619 1.031408,3.169324 0.383559,3.659919 z"
       inkscape:transform-center-x="1.2840625"
       inkscape:transform-center-y="0.78664801"
       transform="matrix(-0.76139755,-0.68276204,0.71021993,-0.73196107,28.348815,166.25612)" />
    <path
       sodipodi:type="star"
       style="fill:#384b00;fill-opacity:1;stroke:#010100;stroke-width:0.785946;stroke-linejoin:round;stroke-dasharray:none;stroke-opacity:1"
       id="path15-4-5-8-3"
       inkscape:flatsided="false"
       sodipodi:sides="5"
       sodipodi:cx="39.299213"
       sodipodi:cy="88.156487"
       sodipodi:r1="5.1695414"
       sodipodi:r2="5.9326835"
       sodipodi:arg1="1.018578"
       sodipodi:arg2="1.6806539"
       inkscape:rounded="0"
       inkscape:randomized="0"
       d="m 42.011037,92.557642 -3.362264,1.495764 -2.697308,-1.95779 -2.461552,-2.735486 1.028455,-3.170284 1.84094,-3.186387 3.332929,-0.0016 3.599316,0.76619 1.031408,3.169324 0.383559,3.659919 z"
       inkscape:transform-center-x="-1.2288938"
       inkscape:transform-center-y="-0.88021806"
       transform="matrix(0.78590878,0.65659234,-0.68299779,0.75552467,70.209275,2.1234372)" />
    <ellipse
       style="fill:#eaffac;fill-opacity:1;stroke:#010100;stroke-width:0.556777;stroke-linejoin:round;stroke-dasharray:none;stroke-opacity:1"
       id="path16-3"
       cx="50.841885"
       cy="84.858299"
       rx="4.0143433"
       ry="3.8591444" />
    <ellipse
       style="fill:#bfff02;fill-opacity:1;stroke:#010100;stroke-width:0.80237;stroke-linejoin:round;stroke-dasharray:none;stroke-opacity:1"
       id="path13-0-6"
       cx="84.703453"
       cy="85.013962"
       rx="11.962115"
       ry="11.500494" />
    <path
       sodipodi:type="star"
       style="fill:#8bb900;fill-opacity:1;stroke:#010100;stroke-width:0.529167;stroke-linejoin:round;stroke-dasharray:none;stroke-opacity:1"
       id="path15-8-1-2-1-1"
       inkscape:flatsided="false"
       sodipodi:sides="3"
       sodipodi:cx="28.185183"
       sodipodi:cy="74.197266"
       sodipodi:r1="4.4193053"
       sodipodi:r2="1.8706946"
       sodipodi:arg1="0.090659887"
       sodipodi:arg2="1.1378574"
       inkscape:rounded="0"
       inkscape:randomized="0"
       d="m 32.586339,74.597371 -3.616324,1.297993 -3.331912,1.913362 0.684067,-3.780825 0.0089,-3.842201 2.932257,2.482832 z"
       inkscape:transform-center-x="0.026240826"
       inkscape:transform-center-y="1.6206898"
       transform="matrix(0.15183195,1.4795589,-1.5389473,0.1459727,194.63197,18.923041)" />
    <path
       sodipodi:type="star"
       style="fill:#8bb900;fill-opacity:1;stroke:#010100;stroke-width:0.529167;stroke-linejoin:round;stroke-dasharray:none;stroke-opacity:1"
       id="path15-8-1-2-0-0-8"
       inkscape:flatsided="false"
       sodipodi:sides="3"
       sodipodi:cx="28.185183"
       sodipodi:cy="74.197266"
       sodipodi:r1="4.4193053"
       sodipodi:r2="1.8706946"
       sodipodi:arg1="0.090659887"
       sodipodi:arg2="1.1378574"
       inkscape:rounded="0"
       inkscape:randomized="0"
       d="m 32.586339,74.597371 -3.616324,1.297993 -3.331912,1.913362 0.684067,-3.780825 0.0089,-3.842201 2.932257,2.482832 z"
       inkscape:transform-center-x="-1.6990659"
       inkscape:transform-center-y="0.010500333"
       transform="matrix(1.539613,-0.13933468,0.14492745,1.4801988,17.430943,-20.597113)" />
    <path
       sodipodi:type="star"
       style="fill:#8bb900;fill-opacity:1;stroke:#010100;stroke-width:0.529167;stroke-linejoin:round;stroke-dasharray:none;stroke-opacity:1"
       id="path15-8-1-2-0-1-2-6-0"
       inkscape:flatsided="false"
       sodipodi:sides="3"
       sodipodi:cx="28.185183"
       sodipodi:cy="74.197266"
       sodipodi:r1="4.4193053"
       sodipodi:r2="1.8706946"
       sodipodi:arg1="0.090659887"
       sodipodi:arg2="1.1378574"
       inkscape:rounded="0"
       inkscape:randomized="0"
       d="m 32.586339,74.597371 -3.616324,1.297993 -3.331912,1.913362 0.684067,-3.780825 0.0089,-3.842201 2.932257,2.482832 z"
       inkscape:transform-center-x="0.03697896"
       inkscape:transform-center-y="-1.611709"
       transform="matrix(1.3966376,0.63831751,-0.6639391,1.3427409,94.290139,-19.756313)" />
    <path
       sodipodi:type="star"
       style="fill:#384b00;fill-opacity:1;stroke:#010100;stroke-width:0.785946;stroke-linejoin:round;stroke-dasharray:none;stroke-opacity:1"
       id="path15-2-0"
       inkscape:flatsided="false"
       sodipodi:sides="5"
       sodipodi:cx="39.299213"
       sodipodi:cy="88.156487"
       sodipodi:r1="5.1695414"
       sodipodi:r2="5.9326835"
       sodipodi:arg1="1.018578"
       sodipodi:arg2="1.6806539"
       inkscape:rounded="0"
       inkscape:randomized="0"
       d="m 42.011037,92.557642 -3.362264,1.495764 -2.697308,-1.95779 -2.461552,-2.735486 1.028455,-3.170284 1.84094,-3.186387 3.332929,-0.0016 3.599316,0.76619 1.031408,3.169324 0.383559,3.659919 z"
       inkscape:transform-center-x="0.98044882"
       inkscape:transform-center-y="-1.1227437"
       transform="matrix(0.66417637,-0.77088627,0.80182907,0.63854563,-1.9386682,68.943445)" />
    <path
       sodipodi:type="star"
       style="fill:#384b00;fill-opacity:1;stroke:#010100;stroke-width:0.785946;stroke-linejoin:round;stroke-dasharray:none;stroke-opacity:1"
       id="path15-4-0-8"
       inkscape:flatsided="false"
       sodipodi:sides="5"
       sodipodi:cx="39.299213"
       sodipodi:cy="88.156487"
       sodipodi:r1="5.1695414"
       sodipodi:r2="5.9326835"
       sodipodi:arg1="1.018578"
       sodipodi:arg2="1.6806539"
       inkscape:rounded="0"
       inkscape:randomized="0"
       d="m 42.011037,92.557642 -3.362264,1.495764 -2.697308,-1.95779 -2.461552,-2.735486 1.028455,-3.170284 1.84094,-3.186387 3.332929,-0.0016 3.599316,0.76619 1.031408,3.169324 0.383559,3.659919 z"
       inkscape:transform-center-x="1.2840164"
       inkscape:transform-center-y="0.7866754"
       transform="matrix(-0.76136999,-0.68278764,0.71019422,-0.73198852,62.215529,166.25994)" />
    <ellipse
       style="fill:#eaffac;fill-opacity:1;stroke:#010100;stroke-width:0.556778;stroke-linejoin:round;stroke-dasharray:none;stroke-opacity:1"
       id="path16-3-2"
       cx="84.707787"
       cy="84.859062"
       rx="4.0141978"
       ry="3.8592892" />
    <ellipse
       style="fill:#bfff02;fill-opacity:1;stroke:#010100;stroke-width:0.802375;stroke-linejoin:round;stroke-dasharray:none;stroke-opacity:1"
       id="path13-0-6-2"
       cx="118.57104"
       cy="85.012825"
       rx="11.962782"
       ry="11.499984" />
    <path
       sodipodi:type="star"
       style="fill:#8bb900;fill-opacity:1;stroke:#010100;stroke-width:0.529167;stroke-linejoin:round;stroke-dasharray:none;stroke-opacity:1"
       id="path15-8-1-2-1-1-8"
       inkscape:flatsided="false"
       sodipodi:sides="3"
       sodipodi:cx="28.185183"
       sodipodi:cy="74.197266"
       sodipodi:r1="4.4193053"
       sodipodi:r2="1.8706946"
       sodipodi:arg1="0.090659887"
       sodipodi:arg2="1.1378574"
       inkscape:rounded="0"
       inkscape:randomized="0"
       d="m 32.586339,74.597371 -3.616324,1.297993 -3.331912,1.913362 0.684067,-3.780825 0.0089,-3.842201 2.932257,2.482832 z"
       inkscape:transform-center-x="0.026243014"
       inkscape:transform-center-y="1.6206178"
       transform="matrix(0.15184042,1.4794932,-1.5390331,0.14596621,228.50567,18.924841)" />
    <path
       sodipodi:type="star"
       style="fill:#8bb900;fill-opacity:1;stroke:#010100;stroke-width:0.529167;stroke-linejoin:round;stroke-dasharray:none;stroke-opacity:1"
       id="path15-8-1-2-0-1-2-6-0-9"
       inkscape:flatsided="false"
       sodipodi:sides="3"
       sodipodi:cx="28.185183"
       sodipodi:cy="74.197266"
       sodipodi:r1="4.4193053"
       sodipodi:r2="1.8706946"
       sodipodi:arg1="0.090659887"
       sodipodi:arg2="1.1378574"
       inkscape:rounded="0"
       inkscape:randomized="0"
       d="m 32.586339,74.597371 -3.616324,1.297993 -3.331912,1.913362 0.684067,-3.780825 0.0089,-3.842201 2.932257,2.482832 z"
       inkscape:transform-center-x="0.036988265"
       inkscape:transform-center-y="-1.6116353"
       transform="matrix(1.3967154,0.63828918,-0.6639761,1.3426813,128.15824,-19.752796)" />
    <path
       sodipodi:type="star"
       style="fill:#384b00;fill-opacity:1;stroke:#010100;stroke-width:0.785946;stroke-linejoin:round;stroke-dasharray:none;stroke-opacity:1"
       id="path15-2-0-0"
       inkscape:flatsided="false"
       sodipodi:sides="5"
       sodipodi:cx="39.299213"
       sodipodi:cy="88.156487"
       sodipodi:r1="5.1695414"
       sodipodi:r2="5.9326835"
       sodipodi:arg1="1.018578"
       sodipodi:arg2="1.6806539"
       inkscape:rounded="0"
       inkscape:randomized="0"
       d="m 42.011037,92.557642 -3.362264,1.495764 -2.697308,-1.95779 -2.461552,-2.735486 1.028455,-3.170284 1.84094,-3.186387 3.332929,-0.0016 3.599316,0.76619 1.031408,3.169324 0.383559,3.659919 z"
       inkscape:transform-center-x="0.98050326"
       inkscape:transform-center-y="-1.1226951"
       transform="matrix(0.6642134,-0.77085205,0.80187377,0.63851727,31.924076,68.943023)" />
    <ellipse
       style="fill:#eaffac;fill-opacity:1;stroke:#010100;stroke-width:0.556781;stroke-linejoin:round;stroke-dasharray:none;stroke-opacity:1"
       id="path16-3-2-2"
       cx="118.57536"
       cy="84.857941"
       rx="4.0144219"
       ry="3.8591177" />
    <ellipse
       style="fill:#bfff02;fill-opacity:1;stroke:#010100;stroke-width:0.802373;stroke-linejoin:round;stroke-dasharray:none;stroke-opacity:1"
       id="path13-0-6-5"
       cx="152.44119"
       cy="85.009438"
       rx="11.965443"
       ry="11.497391" />
    <path
       sodipodi:type="star"
       style="fill:#8bb900;fill-opacity:1;stroke:#010100;stroke-width:0.529167;stroke-linejoin:round;stroke-dasharray:none;stroke-opacity:1"
       id="path15-8-1-2-1-1-9"
       inkscape:flatsided="false"
       sodipodi:sides="3"
       sodipodi:cx="28.185183"
       sodipodi:cy="74.197266"
       sodipodi:r1="4.4193053"
       sodipodi:r2="1.8706946"
       sodipodi:arg1="0.090659887"
       sodipodi:arg2="1.1378574"
       inkscape:rounded="0"
       inkscape:randomized="0"
       d="m 32.586339,74.597371 -3.616324,1.297993 -3.331912,1.913362 0.684067,-3.780825 0.0089,-3.842201 2.932257,2.482832 z"
       inkscape:transform-center-x="0.026243785"
       inkscape:transform-center-y="1.6202543"
       transform="matrix(0.15187418,1.4791597,-1.5393753,0.14593331,262.40027,18.936352)" />
    <path
       sodipodi:type="star"
       style="fill:#384b00;fill-opacity:1;stroke:#010100;stroke-width:0.785946;stroke-linejoin:round;stroke-dasharray:none;stroke-opacity:1"
       id="path15-2-0-8"
       inkscape:flatsided="false"
       sodipodi:sides="5"
       sodipodi:cx="39.299213"
       sodipodi:cy="88.156487"
       sodipodi:r1="5.1695414"
       sodipodi:r2="5.9326835"
       sodipodi:arg1="1.018578"
       sodipodi:arg2="1.6806539"
       inkscape:rounded="0"
       inkscape:randomized="0"
       d="m 42.011037,92.557642 -3.362264,1.495764 -2.697308,-1.95779 -2.461552,-2.735486 1.028455,-3.170284 1.84094,-3.186387 3.332929,-0.0016 3.599316,0.76619 1.031408,3.169324 0.383559,3.659919 z"
       inkscape:transform-center-x="0.98072069"
       inkscape:transform-center-y="-1.12244"
       transform="matrix(0.66436109,-0.77067825,0.80205209,0.63837333,65.77496,68.943258)" />
    <ellipse
       style="fill:#eaffac;fill-opacity:1;stroke:#010100;stroke-width:0.55678;stroke-linejoin:round;stroke-dasharray:none;stroke-opacity:1"
       id="path16-3-2-3"
       cx="152.44553"
       cy="84.854591"
       rx="4.0153141"
       ry="3.858248" />
    <ellipse
       style="fill:#bfff02;fill-opacity:1;stroke:#010100;stroke-width:0.802383;stroke-linejoin:round;stroke-dasharray:none;stroke-opacity:1"
       id="path13-0-6-0"
       cx="186.31099"
       cy="85.006119"
       rx="11.967286"
       ry="11.49589" />
    <ellipse
       style="fill:#eaffac;fill-opacity:1;stroke:#010100;stroke-width:0.556787;stroke-linejoin:round;stroke-dasharray:none;stroke-opacity:1"
       id="path16-3-2-22"
       cx="186.31532"
       cy="84.85128"
       rx="4.015933"
       ry="3.8577445" />
  </g>
</svg>
